<?xml version="1.0" encoding="UTF-8" standalone="no"?>
<!-- Created with Inkscape (http://www.inkscape.org/) -->

<svg
   xmlns:dc="http://purl.org/dc/elements/1.1/"
   xmlns:cc="http://creativecommons.org/ns#"
   xmlns:rdf="http://www.w3.org/1999/02/22-rdf-syntax-ns#"
   xmlns:svg="http://www.w3.org/2000/svg"
   xmlns="http://www.w3.org/2000/svg"
   xmlns:sodipodi="http://sodipodi.sourceforge.net/DTD/sodipodi-0.dtd"
   xmlns:inkscape="http://www.inkscape.org/namespaces/inkscape"
   width="288.80383mm"
   height="83.658501mm"
   viewBox="0 0 288.80383 83.658501"
   version="1.1"
   id="svg8"
   inkscape:version="0.92.1 r15371"
   sodipodi:docname="cambio_campos.svg"
   inkscape:export-filename="/home/david/Proyectos/Presentaciones_CursoProgramacionOOCC/13_awk_scan_text_01/img/cambio_campos.png"
   inkscape:export-xdpi="96"
   inkscape:export-ydpi="96">
  <defs
     id="defs2" />
  <sodipodi:namedview
     id="base"
     pagecolor="#ffffff"
     bordercolor="#666666"
     borderopacity="1.0"
     inkscape:pageopacity="0.0"
     inkscape:pageshadow="2"
     inkscape:zoom="0.44660067"
     inkscape:cx="545.33533"
     inkscape:cy="165.55461"
     inkscape:document-units="mm"
     inkscape:current-layer="layer1"
     showgrid="false"
     inkscape:window-width="1366"
     inkscape:window-height="709"
     inkscape:window-x="0"
     inkscape:window-y="0"
     inkscape:window-maximized="1"
     fit-margin-top="0"
     fit-margin-left="0"
     fit-margin-right="0"
     fit-margin-bottom="0" />
  <metadata
     id="metadata5">
    <rdf:RDF>
      <cc:Work
         rdf:about="">
        <dc:format>image/svg+xml</dc:format>
        <dc:type
           rdf:resource="http://purl.org/dc/dcmitype/StillImage" />
        <dc:title></dc:title>
      </cc:Work>
    </rdf:RDF>
  </metadata>
  <g
     inkscape:label="Capa 1"
     inkscape:groupmode="layer"
     id="layer1"
     transform="translate(12.631098,-141.63014)">
    <rect
       style="opacity:0.509434;fill:#ff0000;fill-opacity:1;stroke:none;stroke-width:1.21091402;stroke-miterlimit:4;stroke-dasharray:none;stroke-dashoffset:0;stroke-opacity:1"
       id="rect50"
       width="85.271332"
       height="83.658501"
       x="90.539276"
       y="141.63014" />
    <rect
       y="141.63014"
       x="188.90294"
       height="83.658501"
       width="87.269775"
       id="rect52"
       style="opacity:0.509434;fill:#ff0000;fill-opacity:1;stroke:none;stroke-width:1.22502148;stroke-miterlimit:4;stroke-dasharray:none;stroke-dashoffset:0;stroke-opacity:1" />
    <rect
       y="141.63014"
       x="10.618803"
       height="83.658501"
       width="68.233231"
       id="rect48"
       style="opacity:0.509434;fill:#ff0000;fill-opacity:1;stroke:none;stroke-width:1.08320272;stroke-miterlimit:4;stroke-dasharray:none;stroke-dashoffset:0;stroke-opacity:1" />
    <rect
       style="opacity:0.509434;fill:#ff6600;fill-opacity:1;stroke:none;stroke-width:0.50646996;stroke-miterlimit:4;stroke-dasharray:none;stroke-dashoffset:0;stroke-opacity:1"
       id="rect14"
       width="23.511642"
       height="53.077553"
       x="10.618803"
       y="141.63014" />
    <rect
       y="141.63014"
       x="40.798561"
       height="53.077553"
       width="43.352039"
       id="rect16"
       style="opacity:0.509434;fill:#ff6600;fill-opacity:1;stroke:none;stroke-width:0.68772852;stroke-miterlimit:4;stroke-dasharray:none;stroke-dashoffset:0;stroke-opacity:1" />
    <rect
       style="opacity:0.509434;fill:#ff6600;fill-opacity:1;stroke:none;stroke-width:0.59247106;stroke-miterlimit:4;stroke-dasharray:none;stroke-dashoffset:0;stroke-opacity:1"
       id="rect18"
       width="32.174351"
       height="53.077553"
       x="90.539276"
       y="141.63014" />
    <rect
       y="141.63014"
       x="128.82286"
       height="53.077553"
       width="52.014748"
       id="rect20"
       style="opacity:0.509434;fill:#ff6600;fill-opacity:1;stroke:none;stroke-width:0.753313;stroke-miterlimit:4;stroke-dasharray:none;stroke-dashoffset:0;stroke-opacity:1" />
    <rect
       style="opacity:0.509434;fill:#ff6600;fill-opacity:1;stroke:none;stroke-width:0.59247106;stroke-miterlimit:4;stroke-dasharray:none;stroke-dashoffset:0;stroke-opacity:1"
       id="rect22"
       width="32.174351"
       height="53.077553"
       x="188.90294"
       y="141.63014" />
    <rect
       y="141.63014"
       x="227.99313"
       height="53.077553"
       width="48.179585"
       id="rect24"
       style="opacity:0.509434;fill:#ff6600;fill-opacity:1;stroke:none;stroke-width:0.72500968;stroke-miterlimit:4;stroke-dasharray:none;stroke-dashoffset:0;stroke-opacity:1" />
    <text
       xml:space="preserve"
       style="font-style:normal;font-variant:normal;font-weight:normal;font-stretch:normal;font-size:20.77037811px;line-height:1.25;font-family:'Accanthis ADF Std No2';-inkscape-font-specification:'Accanthis ADF Std No2, Normal';font-variant-ligatures:normal;font-variant-caps:normal;font-variant-numeric:normal;font-feature-settings:normal;text-align:start;letter-spacing:0px;word-spacing:0px;writing-mode:lr-tb;text-anchor:start;fill:#000000;fill-opacity:1;stroke:none;stroke-width:0.51925939"
       x="12.558916"
       y="159.88924"
       id="text12"><tspan
         sodipodi:role="line"
         id="tspan10"
         x="12.558916"
         y="159.88924"
         style="font-style:normal;font-variant:normal;font-weight:normal;font-stretch:normal;font-size:20.77037811px;font-family:'Accanthis ADF Std No2';-inkscape-font-specification:'Accanthis ADF Std No2, Normal';font-variant-ligatures:normal;font-variant-caps:normal;font-variant-numeric:normal;font-feature-settings:normal;text-align:start;writing-mode:lr-tb;text-anchor:start;stroke-width:0.51925939">un tigre, dos tigres, tres tigres</tspan></text>
    <rect
       style="opacity:0.509434;fill:#00ff00;fill-opacity:1;stroke:none;stroke-width:0.31323054;stroke-miterlimit:4;stroke-dasharray:none;stroke-dashoffset:0;stroke-opacity:1"
       id="rect26"
       width="265.55392"
       height="27.329166"
       x="10.618803"
       y="163.42664" />
    <text
       xml:space="preserve"
       style="font-style:normal;font-variant:normal;font-weight:normal;font-stretch:normal;font-size:26.1741848px;line-height:1.25;font-family:'Accanthis ADF Std No2';-inkscape-font-specification:'Accanthis ADF Std No2, Normal';font-variant-ligatures:normal;font-variant-caps:normal;font-variant-numeric:normal;font-feature-settings:normal;text-align:start;letter-spacing:0px;word-spacing:0px;writing-mode:lr-tb;text-anchor:start;fill:#000000;fill-opacity:1;stroke:none;stroke-width:0.65435457"
       x="18.512304"
       y="184.93039"
       id="text30"><tspan
         sodipodi:role="line"
         id="tspan28"
         x="18.512304"
         y="184.93039"
         style="font-style:normal;font-variant:normal;font-weight:normal;font-stretch:normal;font-size:26.1741848px;font-family:'Accanthis ADF Std No2';-inkscape-font-specification:'Accanthis ADF Std No2, Normal';font-variant-ligatures:normal;font-variant-caps:normal;font-variant-numeric:normal;font-feature-settings:normal;text-align:start;writing-mode:lr-tb;text-anchor:start;stroke-width:0.65435457">1</tspan></text>
    <text
       id="text42"
       y="184.93039"
       x="55.957561"
       style="font-style:normal;font-variant:normal;font-weight:normal;font-stretch:normal;font-size:26.1741848px;line-height:1.25;font-family:'Accanthis ADF Std No2';-inkscape-font-specification:'Accanthis ADF Std No2, Normal';font-variant-ligatures:normal;font-variant-caps:normal;font-variant-numeric:normal;font-feature-settings:normal;text-align:start;letter-spacing:0px;word-spacing:0px;writing-mode:lr-tb;text-anchor:start;fill:#000000;fill-opacity:1;stroke:none;stroke-width:0.65435457"
       xml:space="preserve"><tspan
         style="font-style:normal;font-variant:normal;font-weight:normal;font-stretch:normal;font-size:26.1741848px;font-family:'Accanthis ADF Std No2';-inkscape-font-specification:'Accanthis ADF Std No2, Normal';font-variant-ligatures:normal;font-variant-caps:normal;font-variant-numeric:normal;font-feature-settings:normal;text-align:start;writing-mode:lr-tb;text-anchor:start;stroke-width:0.65435457"
         y="184.93039"
         x="55.957561"
         id="tspan40"
         sodipodi:role="line">2</tspan></text>
    <text
       xml:space="preserve"
       style="font-style:normal;font-variant:normal;font-weight:normal;font-stretch:normal;font-size:26.1741848px;line-height:1.25;font-family:'Accanthis ADF Std No2';-inkscape-font-specification:'Accanthis ADF Std No2, Normal';font-variant-ligatures:normal;font-variant-caps:normal;font-variant-numeric:normal;font-feature-settings:normal;text-align:start;letter-spacing:0px;word-spacing:0px;writing-mode:lr-tb;text-anchor:start;fill:#000000;fill-opacity:1;stroke:none;stroke-width:0.65435457"
       x="99.550545"
       y="184.93039"
       id="text46"><tspan
         sodipodi:role="line"
         id="tspan44"
         x="99.550545"
         y="184.93039"
         style="font-style:normal;font-variant:normal;font-weight:normal;font-stretch:normal;font-size:26.1741848px;font-family:'Accanthis ADF Std No2';-inkscape-font-specification:'Accanthis ADF Std No2, Normal';font-variant-ligatures:normal;font-variant-caps:normal;font-variant-numeric:normal;font-feature-settings:normal;text-align:start;writing-mode:lr-tb;text-anchor:start;stroke-width:0.65435457">3</tspan></text>
    <text
       id="text50"
       y="184.93039"
       x="148.3132"
       style="font-style:normal;font-variant:normal;font-weight:normal;font-stretch:normal;font-size:26.1741848px;line-height:1.25;font-family:'Accanthis ADF Std No2';-inkscape-font-specification:'Accanthis ADF Std No2, Normal';font-variant-ligatures:normal;font-variant-caps:normal;font-variant-numeric:normal;font-feature-settings:normal;text-align:start;letter-spacing:0px;word-spacing:0px;writing-mode:lr-tb;text-anchor:start;fill:#000000;fill-opacity:1;stroke:none;stroke-width:0.65435457"
       xml:space="preserve"><tspan
         style="font-style:normal;font-variant:normal;font-weight:normal;font-stretch:normal;font-size:26.1741848px;font-family:'Accanthis ADF Std No2';-inkscape-font-specification:'Accanthis ADF Std No2, Normal';font-variant-ligatures:normal;font-variant-caps:normal;font-variant-numeric:normal;font-feature-settings:normal;text-align:start;writing-mode:lr-tb;text-anchor:start;stroke-width:0.65435457"
         y="184.93039"
         x="148.3132"
         id="tspan48"
         sodipodi:role="line">4</tspan></text>
    <text
       xml:space="preserve"
       style="font-style:normal;font-variant:normal;font-weight:normal;font-stretch:normal;font-size:26.1741848px;line-height:1.25;font-family:'Accanthis ADF Std No2';-inkscape-font-specification:'Accanthis ADF Std No2, Normal';font-variant-ligatures:normal;font-variant-caps:normal;font-variant-numeric:normal;font-feature-settings:normal;text-align:start;letter-spacing:0px;word-spacing:0px;writing-mode:lr-tb;text-anchor:start;fill:#000000;fill-opacity:1;stroke:none;stroke-width:0.65435457"
       x="199.29283"
       y="184.93039"
       id="text54"><tspan
         sodipodi:role="line"
         id="tspan52"
         x="199.29283"
         y="184.93039"
         style="font-style:normal;font-variant:normal;font-weight:normal;font-stretch:normal;font-size:26.1741848px;font-family:'Accanthis ADF Std No2';-inkscape-font-specification:'Accanthis ADF Std No2, Normal';font-variant-ligatures:normal;font-variant-caps:normal;font-variant-numeric:normal;font-feature-settings:normal;text-align:start;writing-mode:lr-tb;text-anchor:start;stroke-width:0.65435457">5</tspan></text>
    <text
       id="text62"
       y="184.93039"
       x="246.32056"
       style="font-style:normal;font-variant:normal;font-weight:normal;font-stretch:normal;font-size:26.1741848px;line-height:1.25;font-family:'Accanthis ADF Std No2';-inkscape-font-specification:'Accanthis ADF Std No2, Normal';font-variant-ligatures:normal;font-variant-caps:normal;font-variant-numeric:normal;font-feature-settings:normal;text-align:start;letter-spacing:0px;word-spacing:0px;writing-mode:lr-tb;text-anchor:start;fill:#000000;fill-opacity:1;stroke:none;stroke-width:0.65435457"
       xml:space="preserve"><tspan
         style="font-style:normal;font-variant:normal;font-weight:normal;font-stretch:normal;font-size:26.1741848px;font-family:'Accanthis ADF Std No2';-inkscape-font-specification:'Accanthis ADF Std No2, Normal';font-variant-ligatures:normal;font-variant-caps:normal;font-variant-numeric:normal;font-feature-settings:normal;text-align:start;writing-mode:lr-tb;text-anchor:start;stroke-width:0.65435457"
         y="184.93039"
         x="246.32056"
         id="tspan60"
         sodipodi:role="line">6</tspan></text>
    <rect
       y="194.7077"
       x="10.618803"
       height="27.329166"
       width="265.55392"
       id="rect54"
       style="opacity:0.76499999;fill:#ffff00;fill-opacity:1;stroke:none;stroke-width:0.31323054;stroke-miterlimit:4;stroke-dasharray:none;stroke-dashoffset:0;stroke-opacity:1" />
    <text
       id="text878"
       y="184.93039"
       x="18.512304"
       style="font-style:normal;font-variant:normal;font-weight:normal;font-stretch:normal;font-size:26.1741848px;line-height:1.25;font-family:'Accanthis ADF Std No2';-inkscape-font-specification:'Accanthis ADF Std No2, Normal';font-variant-ligatures:normal;font-variant-caps:normal;font-variant-numeric:normal;font-feature-settings:normal;text-align:start;letter-spacing:0px;word-spacing:0px;writing-mode:lr-tb;text-anchor:start;fill:#000000;fill-opacity:1;stroke:none;stroke-width:0.65435457"
       xml:space="preserve"><tspan
         style="font-style:normal;font-variant:normal;font-weight:normal;font-stretch:normal;font-size:26.1741848px;font-family:'Accanthis ADF Std No2';-inkscape-font-specification:'Accanthis ADF Std No2, Normal';font-variant-ligatures:normal;font-variant-caps:normal;font-variant-numeric:normal;font-feature-settings:normal;text-align:start;writing-mode:lr-tb;text-anchor:start;stroke-width:0.65435457"
         y="184.93039"
         x="18.512304"
         id="tspan876"
         sodipodi:role="line">1</tspan></text>
    <text
       xml:space="preserve"
       style="font-style:normal;font-variant:normal;font-weight:normal;font-stretch:normal;font-size:26.1741848px;line-height:1.25;font-family:'Accanthis ADF Std No2';-inkscape-font-specification:'Accanthis ADF Std No2, Normal';font-variant-ligatures:normal;font-variant-caps:normal;font-variant-numeric:normal;font-feature-settings:normal;text-align:start;letter-spacing:0px;word-spacing:0px;writing-mode:lr-tb;text-anchor:start;fill:#000000;fill-opacity:1;stroke:none;stroke-width:0.65435457"
       x="55.957561"
       y="184.93039"
       id="text882"><tspan
         sodipodi:role="line"
         id="tspan880"
         x="55.957561"
         y="184.93039"
         style="font-style:normal;font-variant:normal;font-weight:normal;font-stretch:normal;font-size:26.1741848px;font-family:'Accanthis ADF Std No2';-inkscape-font-specification:'Accanthis ADF Std No2, Normal';font-variant-ligatures:normal;font-variant-caps:normal;font-variant-numeric:normal;font-feature-settings:normal;text-align:start;writing-mode:lr-tb;text-anchor:start;stroke-width:0.65435457">2</tspan></text>
    <text
       id="text886"
       y="184.93039"
       x="99.550545"
       style="font-style:normal;font-variant:normal;font-weight:normal;font-stretch:normal;font-size:26.1741848px;line-height:1.25;font-family:'Accanthis ADF Std No2';-inkscape-font-specification:'Accanthis ADF Std No2, Normal';font-variant-ligatures:normal;font-variant-caps:normal;font-variant-numeric:normal;font-feature-settings:normal;text-align:start;letter-spacing:0px;word-spacing:0px;writing-mode:lr-tb;text-anchor:start;fill:#000000;fill-opacity:1;stroke:none;stroke-width:0.65435457"
       xml:space="preserve"><tspan
         style="font-style:normal;font-variant:normal;font-weight:normal;font-stretch:normal;font-size:26.1741848px;font-family:'Accanthis ADF Std No2';-inkscape-font-specification:'Accanthis ADF Std No2, Normal';font-variant-ligatures:normal;font-variant-caps:normal;font-variant-numeric:normal;font-feature-settings:normal;text-align:start;writing-mode:lr-tb;text-anchor:start;stroke-width:0.65435457"
         y="184.93039"
         x="99.550545"
         id="tspan884"
         sodipodi:role="line">3</tspan></text>
    <text
       xml:space="preserve"
       style="font-style:normal;font-variant:normal;font-weight:normal;font-stretch:normal;font-size:26.1741848px;line-height:1.25;font-family:'Accanthis ADF Std No2';-inkscape-font-specification:'Accanthis ADF Std No2, Normal';font-variant-ligatures:normal;font-variant-caps:normal;font-variant-numeric:normal;font-feature-settings:normal;text-align:start;letter-spacing:0px;word-spacing:0px;writing-mode:lr-tb;text-anchor:start;fill:#000000;fill-opacity:1;stroke:none;stroke-width:0.65435457"
       x="148.3132"
       y="184.93039"
       id="text890"><tspan
         sodipodi:role="line"
         id="tspan888"
         x="148.3132"
         y="184.93039"
         style="font-style:normal;font-variant:normal;font-weight:normal;font-stretch:normal;font-size:26.1741848px;font-family:'Accanthis ADF Std No2';-inkscape-font-specification:'Accanthis ADF Std No2, Normal';font-variant-ligatures:normal;font-variant-caps:normal;font-variant-numeric:normal;font-feature-settings:normal;text-align:start;writing-mode:lr-tb;text-anchor:start;stroke-width:0.65435457">4</tspan></text>
    <text
       id="text894"
       y="184.93039"
       x="199.29283"
       style="font-style:normal;font-variant:normal;font-weight:normal;font-stretch:normal;font-size:26.1741848px;line-height:1.25;font-family:'Accanthis ADF Std No2';-inkscape-font-specification:'Accanthis ADF Std No2, Normal';font-variant-ligatures:normal;font-variant-caps:normal;font-variant-numeric:normal;font-feature-settings:normal;text-align:start;letter-spacing:0px;word-spacing:0px;writing-mode:lr-tb;text-anchor:start;fill:#000000;fill-opacity:1;stroke:none;stroke-width:0.65435457"
       xml:space="preserve"><tspan
         style="font-style:normal;font-variant:normal;font-weight:normal;font-stretch:normal;font-size:26.1741848px;font-family:'Accanthis ADF Std No2';-inkscape-font-specification:'Accanthis ADF Std No2, Normal';font-variant-ligatures:normal;font-variant-caps:normal;font-variant-numeric:normal;font-feature-settings:normal;text-align:start;writing-mode:lr-tb;text-anchor:start;stroke-width:0.65435457"
         y="184.93039"
         x="199.29283"
         id="tspan892"
         sodipodi:role="line">5</tspan></text>
    <text
       xml:space="preserve"
       style="font-style:normal;font-variant:normal;font-weight:normal;font-stretch:normal;font-size:26.1741848px;line-height:1.25;font-family:'Accanthis ADF Std No2';-inkscape-font-specification:'Accanthis ADF Std No2, Normal';font-variant-ligatures:normal;font-variant-caps:normal;font-variant-numeric:normal;font-feature-settings:normal;text-align:start;letter-spacing:0px;word-spacing:0px;writing-mode:lr-tb;text-anchor:start;fill:#000000;fill-opacity:1;stroke:none;stroke-width:0.65435457"
       x="246.32056"
       y="184.93039"
       id="text898"><tspan
         sodipodi:role="line"
         id="tspan896"
         x="246.32056"
         y="184.93039"
         style="font-style:normal;font-variant:normal;font-weight:normal;font-stretch:normal;font-size:26.1741848px;font-family:'Accanthis ADF Std No2';-inkscape-font-specification:'Accanthis ADF Std No2, Normal';font-variant-ligatures:normal;font-variant-caps:normal;font-variant-numeric:normal;font-feature-settings:normal;text-align:start;writing-mode:lr-tb;text-anchor:start;stroke-width:0.65435457">6</tspan></text>
    <text
       xml:space="preserve"
       style="font-style:normal;font-variant:normal;font-weight:normal;font-stretch:normal;font-size:26.1741848px;line-height:1.25;font-family:'Accanthis ADF Std No2';-inkscape-font-specification:'Accanthis ADF Std No2, Normal';font-variant-ligatures:normal;font-variant-caps:normal;font-variant-numeric:normal;font-feature-settings:normal;text-align:start;letter-spacing:0px;word-spacing:0px;writing-mode:lr-tb;text-anchor:start;fill:#000000;fill-opacity:1;stroke:none;stroke-width:0.65435457"
       x="18.512304"
       y="216.7681"
       id="text902"><tspan
         sodipodi:role="line"
         id="tspan900"
         x="18.512304"
         y="216.7681"
         style="font-style:normal;font-variant:normal;font-weight:normal;font-stretch:normal;font-size:26.1741848px;font-family:'Accanthis ADF Std No2';-inkscape-font-specification:'Accanthis ADF Std No2, Normal';font-variant-ligatures:normal;font-variant-caps:normal;font-variant-numeric:normal;font-feature-settings:normal;text-align:start;writing-mode:lr-tb;text-anchor:start;stroke-width:0.65435457">1</tspan></text>
    <text
       id="text906"
       y="216.7681"
       x="126.05556"
       style="font-style:normal;font-variant:normal;font-weight:normal;font-stretch:normal;font-size:26.1741848px;line-height:1.25;font-family:'Accanthis ADF Std No2';-inkscape-font-specification:'Accanthis ADF Std No2, Normal';font-variant-ligatures:normal;font-variant-caps:normal;font-variant-numeric:normal;font-feature-settings:normal;text-align:start;letter-spacing:0px;word-spacing:0px;writing-mode:lr-tb;text-anchor:start;fill:#000000;fill-opacity:1;stroke:none;stroke-width:0.65435457"
       xml:space="preserve"><tspan
         style="font-style:normal;font-variant:normal;font-weight:normal;font-stretch:normal;font-size:26.1741848px;font-family:'Accanthis ADF Std No2';-inkscape-font-specification:'Accanthis ADF Std No2, Normal';font-variant-ligatures:normal;font-variant-caps:normal;font-variant-numeric:normal;font-feature-settings:normal;text-align:start;writing-mode:lr-tb;text-anchor:start;stroke-width:0.65435457"
         y="216.7681"
         x="126.05556"
         id="tspan904"
         sodipodi:role="line">2</tspan></text>
    <text
       xml:space="preserve"
       style="font-style:normal;font-variant:normal;font-weight:normal;font-stretch:normal;font-size:26.1741848px;line-height:1.25;font-family:'Accanthis ADF Std No2';-inkscape-font-specification:'Accanthis ADF Std No2, Normal';font-variant-ligatures:normal;font-variant-caps:normal;font-variant-numeric:normal;font-feature-settings:normal;text-align:start;letter-spacing:0px;word-spacing:0px;writing-mode:lr-tb;text-anchor:start;fill:#000000;fill-opacity:1;stroke:none;stroke-width:0.65435457"
       x="226.51776"
       y="216.7681"
       id="text910"><tspan
         sodipodi:role="line"
         id="tspan908"
         x="226.51776"
         y="216.7681"
         style="font-style:normal;font-variant:normal;font-weight:normal;font-stretch:normal;font-size:26.1741848px;font-family:'Accanthis ADF Std No2';-inkscape-font-specification:'Accanthis ADF Std No2, Normal';font-variant-ligatures:normal;font-variant-caps:normal;font-variant-numeric:normal;font-feature-settings:normal;text-align:start;writing-mode:lr-tb;text-anchor:start;stroke-width:0.65435457">3</tspan></text>
    <circle
       style="opacity:0.76499999;fill:#00a1ff;fill-opacity:1;stroke:none;stroke-width:0.26499999;stroke-miterlimit:4;stroke-dasharray:none;stroke-dashoffset:0;stroke-opacity:1"
       id="path912"
       cx="-1.7392524"
       cy="179.20775"
       r="10.891846" />
    <text
       xml:space="preserve"
       style="font-style:normal;font-weight:normal;font-size:10.58333302px;line-height:1.25;font-family:sans-serif;letter-spacing:0px;word-spacing:0px;fill:#000000;fill-opacity:1;stroke:none;stroke-width:0.26458332"
       x="-8.2969913"
       y="183.0654"
       id="text916"><tspan
         sodipodi:role="line"
         id="tspan914"
         x="-8.2969913"
         y="183.0654"
         style="stroke-width:0.26458332">&quot; &quot;</tspan></text>
    <circle
       r="10.891846"
       cy="208.53195"
       cx="-1.7392524"
       id="circle918"
       style="opacity:0.76499999;fill:#00a1ff;fill-opacity:1;stroke:none;stroke-width:0.26499999;stroke-miterlimit:4;stroke-dasharray:none;stroke-dashoffset:0;stroke-opacity:1" />
    <text
       id="text922"
       y="211.77464"
       x="-9.9816418"
       style="font-style:normal;font-weight:normal;font-size:10.58333302px;line-height:1.25;font-family:sans-serif;letter-spacing:0px;word-spacing:0px;fill:#000000;fill-opacity:1;stroke:none;stroke-width:0.26458332"
       xml:space="preserve"><tspan
         style="stroke-width:0.26458332"
         y="211.77464"
         x="-9.9816418"
         id="tspan920"
         sodipodi:role="line">&quot;, &quot;</tspan></text>
  </g>
</svg>
