<?xml version="1.0" encoding="UTF-8" standalone="no"?>
<!-- Created with Inkscape (http://www.inkscape.org/) -->

<svg
   xmlns:dc="http://purl.org/dc/elements/1.1/"
   xmlns:cc="http://creativecommons.org/ns#"
   xmlns:rdf="http://www.w3.org/1999/02/22-rdf-syntax-ns#"
   xmlns:svg="http://www.w3.org/2000/svg"
   xmlns="http://www.w3.org/2000/svg"
   xmlns:sodipodi="http://sodipodi.sourceforge.net/DTD/sodipodi-0.dtd"
   xmlns:inkscape="http://www.inkscape.org/namespaces/inkscape"
   width="184.8884mm"
   height="83.865509mm"
   viewBox="0 0 185.15252 83.865509"
   version="1.1"
   id="svg8"
   inkscape:version="0.92.1 r15371"
   sodipodi:docname="entendiendo_awk.svg"
   inkscape:export-filename="/home/david/Proyectos/Presentaciones_CursoProgramacionOOCC/13_awk_scan_text_01/img/entendiendo_awk.png"
   inkscape:export-xdpi="96"
   inkscape:export-ydpi="96">
  <defs
     id="defs2" />
  <sodipodi:namedview
     id="base"
     pagecolor="#ffffff"
     bordercolor="#666666"
     borderopacity="1.0"
     inkscape:pageopacity="0.0"
     inkscape:pageshadow="2"
     inkscape:zoom="0.66035415"
     inkscape:cx="252.06387"
     inkscape:cy="77.328472"
     inkscape:document-units="mm"
     inkscape:current-layer="layer1"
     showgrid="false"
     viewbox-width="210.3"
     fit-margin-top="0"
     fit-margin-left="0"
     fit-margin-right="0"
     fit-margin-bottom="0"
     inkscape:window-width="1366"
     inkscape:window-height="709"
     inkscape:window-x="0"
     inkscape:window-y="0"
     inkscape:window-maximized="1" />
  <metadata
     id="metadata5">
    <rdf:RDF>
      <cc:Work
         rdf:about="">
        <dc:format>image/svg+xml</dc:format>
        <dc:type
           rdf:resource="http://purl.org/dc/dcmitype/StillImage" />
        <dc:title></dc:title>
      </cc:Work>
    </rdf:RDF>
  </metadata>
  <g
     inkscape:label="Capa 1"
     inkscape:groupmode="layer"
     id="layer1"
     transform="translate(-12.453466,-32.092493)">
    <g
       id="g24"
       transform="translate(0,0.25100577)">
      <circle
         r="17.053087"
         cy="78.499771"
         cx="29.506554"
         id="path10"
         style="opacity:0.509434;fill:#0000ff;fill-opacity:1;stroke:none;stroke-width:0.26499999;stroke-miterlimit:4;stroke-dasharray:none;stroke-dashoffset:0;stroke-opacity:1" />
      <text
         id="text14"
         y="74.621597"
         x="16.778627"
         style="font-style:normal;font-variant:normal;font-weight:normal;font-stretch:normal;font-size:9.00935745px;line-height:1.25;font-family:'Accanthis ADF Std No3';-inkscape-font-specification:'Accanthis ADF Std No3, Normal';font-variant-ligatures:normal;font-variant-caps:normal;font-variant-numeric:normal;font-feature-settings:normal;text-align:start;letter-spacing:0px;word-spacing:0px;writing-mode:lr-tb;text-anchor:start;fill:#000000;fill-opacity:1;stroke:none;stroke-width:0.22523087"
         xml:space="preserve"><tspan
           style="font-style:normal;font-variant:normal;font-weight:normal;font-stretch:normal;font-size:9.00935745px;font-family:'Accanthis ADF Std No3';-inkscape-font-specification:'Accanthis ADF Std No3, Normal';font-variant-ligatures:normal;font-variant-caps:normal;font-variant-numeric:normal;font-feature-settings:normal;text-align:start;writing-mode:lr-tb;text-anchor:start;stroke-width:0.22523087"
           y="74.621597"
           x="16.778627"
           id="tspan12"
           sodipodi:role="line">acción</tspan><tspan
           id="tspan16"
           style="font-style:normal;font-variant:normal;font-weight:normal;font-stretch:normal;font-size:9.00935745px;font-family:'Accanthis ADF Std No3';-inkscape-font-specification:'Accanthis ADF Std No3, Normal';font-variant-ligatures:normal;font-variant-caps:normal;font-variant-numeric:normal;font-feature-settings:normal;text-align:start;writing-mode:lr-tb;text-anchor:start;stroke-width:0.22523087"
           y="85.883293"
           x="16.778627"
           sodipodi:role="line">BEGIN</tspan></text>
    </g>
    <rect
       style="opacity:0.509434;fill:#ff0000;fill-opacity:1;stroke:none;stroke-width:0.13948573;stroke-miterlimit:4;stroke-dasharray:none;stroke-dashoffset:0;stroke-opacity:1"
       id="rect18"
       width="88.522766"
       height="24.525784"
       x="58.248749"
       y="69.180702"
       ry="2.3273282" />
    <circle
       r="17.053087"
       cy="78.750778"
       cx="178.57738"
       id="circle26"
       style="opacity:0.509434;fill:#0000ff;fill-opacity:1;stroke:none;stroke-width:0.26499999;stroke-miterlimit:4;stroke-dasharray:none;stroke-dashoffset:0;stroke-opacity:1" />
    <text
       id="text32"
       y="76.151581"
       x="178.51909"
       style="font-style:normal;font-variant:normal;font-weight:normal;font-stretch:normal;font-size:9.00935745px;line-height:1.25;font-family:'Accanthis ADF Std No3';-inkscape-font-specification:'Accanthis ADF Std No3, Normal';font-variant-ligatures:normal;font-variant-caps:normal;font-variant-numeric:normal;font-feature-settings:normal;text-align:center;letter-spacing:0px;word-spacing:0px;writing-mode:lr-tb;text-anchor:middle;fill:#000000;fill-opacity:1;stroke:none;stroke-width:0.22523087"
       xml:space="preserve"><tspan
         style="font-style:normal;font-variant:normal;font-weight:normal;font-stretch:normal;font-size:9.00935745px;font-family:'Accanthis ADF Std No3';-inkscape-font-specification:'Accanthis ADF Std No3, Normal';font-variant-ligatures:normal;font-variant-caps:normal;font-variant-numeric:normal;font-feature-settings:normal;text-align:center;writing-mode:lr-tb;text-anchor:middle;stroke-width:0.22523087"
         y="76.151581"
         x="178.51909"
         id="tspan28"
         sodipodi:role="line">acción</tspan><tspan
         id="tspan30"
         style="font-style:normal;font-variant:normal;font-weight:normal;font-stretch:normal;font-size:9.00935745px;font-family:'Accanthis ADF Std No3';-inkscape-font-specification:'Accanthis ADF Std No3, Normal';font-variant-ligatures:normal;font-variant-caps:normal;font-variant-numeric:normal;font-feature-settings:normal;text-align:center;writing-mode:lr-tb;text-anchor:middle;stroke-width:0.22523087"
         y="87.413277"
         x="178.51909"
         sodipodi:role="line">END</tspan></text>
    <path
       inkscape:connector-curvature="0"
       id="rect36"
       d="m 53.119216,76.661646 v 0.85295 H 47.61466 v 3.44432 h 5.504556 v 0.85263 l 2.230085,-1.28756 2.229756,-1.28723 -2.229756,-1.28756 z"
       style="opacity:0.509434;fill:#00ff00;fill-opacity:1;stroke:none;stroke-width:0.17012827;stroke-miterlimit:4;stroke-dasharray:none;stroke-dashoffset:0;stroke-opacity:1" />
    <path
       style="opacity:0.509434;fill:#00ff00;fill-opacity:1;stroke:none;stroke-width:0.17012827;stroke-miterlimit:4;stroke-dasharray:none;stroke-dashoffset:0;stroke-opacity:1"
       d="m 155.54748,76.661646 v 0.85295 h -5.50455 v 3.44432 h 5.50455 v 0.85263 l 2.23009,-1.28756 2.22975,-1.28723 -2.22975,-1.28756 z"
       id="path41"
       inkscape:connector-curvature="0" />
    <flowRoot
       transform="matrix(0.45139823,0,0,0.45139823,0.36137,-18.569713)"
       style="font-style:normal;font-variant:normal;font-weight:normal;font-stretch:normal;font-size:40px;line-height:1.25;font-family:'Accanthis ADF Std No2';-inkscape-font-specification:'Accanthis ADF Std No2, Normal';font-variant-ligatures:normal;font-variant-caps:normal;font-variant-numeric:normal;font-feature-settings:normal;text-align:start;letter-spacing:0px;word-spacing:0px;writing-mode:lr-tb;text-anchor:start;fill:#000000;fill-opacity:1;stroke:none"
       id="flowRoot43"
       xml:space="preserve"><flowRegion
         style="font-style:normal;font-variant:normal;font-weight:normal;font-stretch:normal;font-size:40px;font-family:'Accanthis ADF Std No2';-inkscape-font-specification:'Accanthis ADF Std No2, Normal';font-variant-ligatures:normal;font-variant-caps:normal;font-variant-numeric:normal;font-feature-settings:normal;text-align:start;writing-mode:lr-tb;text-anchor:start"
         id="flowRegion45"><rect
           style="font-style:normal;font-variant:normal;font-weight:normal;font-stretch:normal;font-size:40px;font-family:'Accanthis ADF Std No2';-inkscape-font-specification:'Accanthis ADF Std No2, Normal';font-variant-ligatures:normal;font-variant-caps:normal;font-variant-numeric:normal;font-feature-settings:normal;text-align:start;writing-mode:lr-tb;text-anchor:start"
           y="105.53411"
           x="31.748795"
           height="62.576363"
           width="875.80511"
           id="rect47" /></flowRegion><flowPara
         id="flowPara49">BEGIN{}{#operacion}END{}</flowPara></flowRoot>    <path
       style="opacity:0.509434;fill:#ff6600;fill-opacity:1;stroke:none;stroke-width:0.17012827;stroke-miterlimit:4;stroke-dasharray:none;stroke-dashoffset:0;stroke-opacity:1"
       d="m 32.0815,56.191206 h -0.85295 v -5.50456 h -3.44432 v 5.50456 H 26.9316 l 1.28756,2.23008 1.28723,2.22976 1.28756,-2.22976 z"
       id="path51"
       inkscape:connector-curvature="0" />
    <path
       inkscape:connector-curvature="0"
       id="path53"
       d="m 181.15232,56.191206 h -0.85295 v -5.50456 h -3.44432 v 5.50456 h -0.85263 l 1.28756,2.23008 1.28723,2.22976 1.28756,-2.22976 z"
       style="opacity:0.509434;fill:#ff6600;fill-opacity:1;stroke:none;stroke-width:0.17012827;stroke-miterlimit:4;stroke-dasharray:none;stroke-dashoffset:0;stroke-opacity:1" />
    <path
       style="opacity:0.509434;fill:#ff6600;fill-opacity:1;stroke:none;stroke-width:0.30752856;stroke-miterlimit:4;stroke-dasharray:none;stroke-dashoffset:0;stroke-opacity:1"
       d="m 112.11737,60.636841 h -1.54181 v -9.950195 h -6.22605 v 9.950195 h -1.54124 l 2.32743,4.031154 2.32683,4.030576 2.32743,-4.030576 z"
       id="path67"
       inkscape:connector-curvature="0" />
    <text
       xml:space="preserve"
       style="font-style:normal;font-variant:normal;font-weight:normal;font-stretch:normal;font-size:10.58333302px;line-height:1.25;font-family:'Accanthis ADF Std No2';-inkscape-font-specification:'Accanthis ADF Std No2, Normal';font-variant-ligatures:normal;font-variant-caps:normal;font-variant-numeric:normal;font-feature-settings:normal;text-align:start;letter-spacing:0px;word-spacing:0px;writing-mode:lr-tb;text-anchor:start;fill:#000000;fill-opacity:1;stroke:none;stroke-width:0.26458332"
       x="58.283401"
       y="85.359428"
       id="text71"><tspan
         sodipodi:role="line"
         x="58.283401"
         y="85.359428"
         style="font-style:normal;font-variant:normal;font-weight:normal;font-stretch:normal;font-size:10.58333302px;font-family:'Accanthis ADF Std No2';-inkscape-font-specification:'Accanthis ADF Std No2, Normal';font-variant-ligatures:normal;font-variant-caps:normal;font-variant-numeric:normal;font-feature-settings:normal;text-align:start;writing-mode:lr-tb;text-anchor:start;stroke-width:0.26458332"
         id="tspan73">Lectura línea a línea</tspan></text>
    <path
       style="opacity:0.76499999;fill:#00a1ff;fill-opacity:1;stroke:none;stroke-width:1.00157475;stroke-miterlimit:4;stroke-dasharray:none;stroke-dashoffset:0;stroke-opacity:1"
       d="m 230.49414,234.29883 v 28.22656 28.22656 l 16.66602,-9.62304 a 104.1357,64.35941 0 0 0 92.72461,35.21679 104.1357,64.35941 0 0 0 104.13671,-64.35937 104.1357,64.35941 0 0 0 -1.70312,-11.45508 104.1357,64.35941 0 0 1 -102.43359,53.09766 104.1357,64.35941 0 0 1 -77.32227,-21.39258 l 16.82031,-9.71094 -24.44531,-14.11328 z"
       transform="matrix(0.26496132,0,0,0.26496132,12.453466,32.212959)"
       id="path28"
       inkscape:connector-curvature="0" />
  </g>
</svg>
