<?xml version="1.0" encoding="UTF-8" standalone="no"?>
<!-- Created with Inkscape (http://www.inkscape.org/) -->

<svg
   xmlns:dc="http://purl.org/dc/elements/1.1/"
   xmlns:cc="http://creativecommons.org/ns#"
   xmlns:rdf="http://www.w3.org/1999/02/22-rdf-syntax-ns#"
   xmlns:svg="http://www.w3.org/2000/svg"
   xmlns="http://www.w3.org/2000/svg"
   xmlns:sodipodi="http://sodipodi.sourceforge.net/DTD/sodipodi-0.dtd"
   xmlns:inkscape="http://www.inkscape.org/namespaces/inkscape"
   width="8.9776545in"
   height="7.2733345in"
   viewBox="0 0 228.03242 184.7427"
   version="1.1"
   id="svg8"
   inkscape:version="0.92.1 r15371"
   sodipodi:docname="regex_e1.svg"
   inkscape:export-filename="/home/david/Proyectos/Presentaciones_CursoProgramacionOOCC/7_patrones_regex_01/img/regex_e1.png"
   inkscape:export-xdpi="96"
   inkscape:export-ydpi="96">
  <defs
     id="defs2" />
  <sodipodi:namedview
     id="base"
     pagecolor="#ffffff"
     bordercolor="#666666"
     borderopacity="1.0"
     inkscape:pageopacity="0.0"
     inkscape:pageshadow="2"
     inkscape:zoom="0.49497475"
     inkscape:cx="272.71136"
     inkscape:cy="266.84354"
     inkscape:document-units="mm"
     inkscape:current-layer="g4642"
     showgrid="false"
     units="in"
     inkscape:window-width="1366"
     inkscape:window-height="709"
     inkscape:window-x="0"
     inkscape:window-y="0"
     inkscape:window-maximized="1"
     fit-margin-top="0"
     fit-margin-left="0"
     fit-margin-right="0"
     fit-margin-bottom="0" />
  <metadata
     id="metadata5">
    <rdf:RDF>
      <cc:Work
         rdf:about="">
        <dc:format>image/svg+xml</dc:format>
        <dc:type
           rdf:resource="http://purl.org/dc/dcmitype/StillImage" />
        <dc:title></dc:title>
      </cc:Work>
    </rdf:RDF>
  </metadata>
  <g
     inkscape:label="Capa 1"
     inkscape:groupmode="layer"
     id="layer1"
     transform="translate(-6.0133794,-107.25595)">
    <g
       id="g4642">
      <g
         transform="matrix(0.96996844,0,0,0.96996844,0.28659198,3.2210635)"
         id="g4545">
        <rect
           style="opacity:0.509434;fill:#c679ce;fill-opacity:1;stroke:none;stroke-width:1.05833328;stroke-miterlimit:4;stroke-dasharray:none;stroke-dashoffset:0;stroke-opacity:1"
           id="rect10"
           width="27.970238"
           height="27.970238"
           x="9.5430269"
           y="107.25595"
           ry="0" />
        <rect
           style="opacity:0.509434;fill:#c679ce;fill-opacity:1;stroke:none;stroke-width:1.05833328;stroke-miterlimit:4;stroke-dasharray:none;stroke-dashoffset:0;stroke-opacity:1"
           id="rect14"
           width="27.970238"
           height="27.970238"
           x="177.36447"
           y="107.25595"
           ry="0" />
        <rect
           ry="0"
           y="107.25595"
           x="37.513264"
           height="27.970238"
           width="27.970238"
           id="rect3711"
           style="opacity:0.509434;fill:#ff8080;fill-opacity:1;stroke:none;stroke-width:1.05833328;stroke-miterlimit:4;stroke-dasharray:none;stroke-dashoffset:0;stroke-opacity:1" />
        <rect
           style="opacity:0.509434;fill:#c679ce;fill-opacity:1;stroke:none;stroke-width:1.05833328;stroke-miterlimit:4;stroke-dasharray:none;stroke-dashoffset:0;stroke-opacity:1"
           id="rect3713"
           width="27.970238"
           height="27.970238"
           x="65.483505"
           y="107.25595"
           ry="0" />
        <rect
           ry="0"
           y="107.25595"
           x="93.453743"
           height="27.970238"
           width="27.970238"
           id="rect3715"
           style="opacity:0.509434;fill:#ff8080;fill-opacity:1;stroke:none;stroke-width:1.05833328;stroke-miterlimit:4;stroke-dasharray:none;stroke-dashoffset:0;stroke-opacity:1" />
        <rect
           style="opacity:0.509434;fill:#c679ce;fill-opacity:1;stroke:none;stroke-width:1.05833328;stroke-miterlimit:4;stroke-dasharray:none;stroke-dashoffset:0;stroke-opacity:1"
           id="rect3717"
           width="27.970238"
           height="27.970238"
           x="121.42398"
           y="107.25595"
           ry="0" />
        <rect
           ry="0"
           y="107.25595"
           x="149.39423"
           height="27.970238"
           width="27.970238"
           id="rect3719"
           style="opacity:0.509434;fill:#ff8080;fill-opacity:1;stroke:none;stroke-width:1.05833328;stroke-miterlimit:4;stroke-dasharray:none;stroke-dashoffset:0;stroke-opacity:1" />
      </g>
      <text
         id="text4528"
         y="128.74989"
         x="16.000753"
         style="font-style:normal;font-weight:normal;font-size:21.47147751px;line-height:1.25;font-family:sans-serif;letter-spacing:0px;word-spacing:0px;fill:#000000;fill-opacity:1;stroke:none;stroke-width:0.53678691"
         xml:space="preserve"><tspan
           style="stroke-width:0.53678691"
           y="128.74989"
           x="16.000753"
           id="tspan4526"
           sodipodi:role="line">1  2  3  4  5  6  7</tspan></text>
      <text
         id="text4553"
         y="183.49483"
         x="18.295528"
         style="font-style:normal;font-weight:normal;font-size:27.7640152px;line-height:1.25;font-family:sans-serif;letter-spacing:0px;word-spacing:0px;fill:#000000;fill-opacity:1;stroke:none;stroke-width:0.69410038"
         xml:space="preserve"><tspan
           style="stroke-width:0.69410038"
           y="183.49483"
           x="18.295528"
           id="tspan4551"
           sodipodi:role="line">p a p á</tspan></text>
      <text
         xml:space="preserve"
         style="font-style:normal;font-weight:normal;font-size:27.7640152px;line-height:1.25;font-family:sans-serif;letter-spacing:0px;word-spacing:0px;fill:#000000;fill-opacity:1;stroke:none;stroke-width:0.69410038"
         x="18.295528"
         y="215.98093"
         id="text4557"><tspan
           sodipodi:role="line"
           id="tspan4555"
           x="18.295528"
           y="215.98093"
           style="stroke-width:0.69410038">a b u e l  o</tspan></text>
      <text
         id="text4561"
         y="241.55508"
         x="18.295528"
         style="font-style:normal;font-weight:normal;font-size:27.7640152px;line-height:1.25;font-family:sans-serif;letter-spacing:0px;word-spacing:0px;fill:#000000;fill-opacity:1;stroke:none;stroke-width:0.69410038"
         xml:space="preserve"><tspan
           style="stroke-width:0.69410038"
           y="241.55508"
           x="18.295528"
           id="tspan4559"
           sodipodi:role="line">a b u e l  a</tspan></text>
      <text
         xml:space="preserve"
         style="font-style:normal;font-weight:normal;font-size:25.19198799px;line-height:1.25;font-family:sans-serif;letter-spacing:0px;word-spacing:0px;fill:#000000;fill-opacity:1;stroke:none;stroke-width:0.62979972"
         x="8.9074163"
         y="156.31438"
         id="text4565"><tspan
           sodipodi:role="line"
           id="tspan4563"
           x="8.9074163"
           y="156.31438"
           style="stroke-width:0.62979972">m a m á</tspan></text>
      <path
         sodipodi:nodetypes="cc"
         inkscape:connector-curvature="0"
         id="path4567"
         d="M 36.673274,107.25595 V 247.10714"
         style="fill:none;stroke:#000000;stroke-width:0.26458332px;stroke-linecap:butt;stroke-linejoin:miter;stroke-opacity:1" />
      <path
         sodipodi:nodetypes="cc"
         style="fill:none;stroke:#000000;stroke-width:0.26458332px;stroke-linecap:butt;stroke-linejoin:miter;stroke-opacity:1"
         d="M 63.667497,107.25595 V 247.48512"
         id="path4569"
         inkscape:connector-curvature="0" />
      <path
         sodipodi:nodetypes="cc"
         inkscape:connector-curvature="0"
         id="path4571"
         d="M 91.062624,107.25595 V 247.10714"
         style="fill:none;stroke:#000000;stroke-width:0.26458332px;stroke-linecap:butt;stroke-linejoin:miter;stroke-opacity:1" />
      <path
         sodipodi:nodetypes="cc"
         style="fill:none;stroke:#000000;stroke-width:0.26458332px;stroke-linecap:butt;stroke-linejoin:miter;stroke-opacity:1"
         d="M 118.59139,107.25595 V 247.10714"
         id="path4573"
         inkscape:connector-curvature="0" />
      <path
         sodipodi:nodetypes="cc"
         inkscape:connector-curvature="0"
         id="path4575"
         d="M 145.31834,107.25595 V 246.35119"
         style="fill:none;stroke:#000000;stroke-width:0.26458332px;stroke-linecap:butt;stroke-linejoin:miter;stroke-opacity:1" />
      <path
         sodipodi:nodetypes="cc"
         style="fill:none;stroke:#000000;stroke-width:0.26458332px;stroke-linecap:butt;stroke-linejoin:miter;stroke-opacity:1"
         d="M 172.15465,107.25595 V 246.35119"
         id="path4577"
         inkscape:connector-curvature="0" />
      <path
         inkscape:connector-curvature="0"
         id="path4579"
         d="m 6.047619,245.97321 c 1.8577769,-0.49779 199.571431,0 199.571431,0"
         style="fill:none;stroke:#000000;stroke-width:0.26458332px;stroke-linecap:butt;stroke-linejoin:miter;stroke-opacity:1" />
      <text
         id="text4583"
         y="270.65039"
         x="6.8008265"
         style="font-style:normal;font-weight:normal;font-size:18.52771568px;line-height:1.25;font-family:sans-serif;letter-spacing:0px;word-spacing:0px;fill:#000000;fill-opacity:1;stroke:none;stroke-width:0.46319291"
         xml:space="preserve"><tspan
           style="stroke-width:0.46319291"
           y="270.65039"
           x="6.8008265"
           id="tspan4581"
           sodipodi:role="line">[amp][ab][mpu][áe]l[oa]</tspan></text>
      <text
         id="text4587"
         y="291.71091"
         x="26.144541"
         style="font-style:normal;font-weight:normal;font-size:20.32037926px;line-height:1.25;font-family:sans-serif;letter-spacing:0px;word-spacing:0px;fill:#000000;fill-opacity:1;stroke:none;stroke-width:0.50800949"
         xml:space="preserve"><tspan
           style="stroke-width:0.50800949"
           y="291.71091"
           x="26.144541"
           id="tspan4585"
           sodipodi:role="line">1°</tspan></text>
      <text
         xml:space="preserve"
         style="font-style:normal;font-weight:normal;font-size:20.32037926px;line-height:1.25;font-family:sans-serif;letter-spacing:0px;word-spacing:0px;fill:#000000;fill-opacity:1;stroke:none;stroke-width:0.50800949"
         x="73.769539"
         y="291.71091"
         id="text4591"><tspan
           sodipodi:role="line"
           id="tspan4589"
           x="73.769539"
           y="291.71091"
           style="stroke-width:0.50800949">2°</tspan></text>
      <text
         id="text4595"
         y="291.71091"
         x="122.90644"
         style="font-style:normal;font-weight:normal;font-size:20.32037926px;line-height:1.25;font-family:sans-serif;letter-spacing:0px;word-spacing:0px;fill:#000000;fill-opacity:1;stroke:none;stroke-width:0.50800949"
         xml:space="preserve"><tspan
           style="stroke-width:0.50800949"
           y="291.71091"
           x="122.90644"
           id="tspan4593"
           sodipodi:role="line">3°</tspan></text>
      <text
         xml:space="preserve"
         style="font-style:normal;font-weight:normal;font-size:20.32037926px;line-height:1.25;font-family:sans-serif;letter-spacing:0px;word-spacing:0px;fill:#000000;fill-opacity:1;stroke:none;stroke-width:0.50800949"
         x="165.66957"
         y="291.71091"
         id="text4599"><tspan
           sodipodi:role="line"
           id="tspan4597"
           x="165.66957"
           y="291.71091"
           style="stroke-width:0.50800949">4°</tspan></text>
      <text
         id="text4603"
         y="291.71091"
         x="208.96724"
         style="font-style:normal;font-weight:normal;font-size:20.32037926px;line-height:1.25;font-family:sans-serif;letter-spacing:0px;word-spacing:0px;fill:#000000;fill-opacity:1;stroke:none;stroke-width:0.50800949"
         xml:space="preserve"><tspan
           style="stroke-width:0.50800949"
           y="291.71091"
           x="208.96724"
           id="tspan4601"
           sodipodi:role="line">5°</tspan></text>
    </g>
  </g>
</svg>
