<?xml version="1.0" encoding="UTF-8" standalone="no"?>
<!-- Created with Inkscape (http://www.inkscape.org/) -->

<svg
   xmlns:dc="http://purl.org/dc/elements/1.1/"
   xmlns:cc="http://creativecommons.org/ns#"
   xmlns:rdf="http://www.w3.org/1999/02/22-rdf-syntax-ns#"
   xmlns:svg="http://www.w3.org/2000/svg"
   xmlns="http://www.w3.org/2000/svg"
   xmlns:sodipodi="http://sodipodi.sourceforge.net/DTD/sodipodi-0.dtd"
   xmlns:inkscape="http://www.inkscape.org/namespaces/inkscape"
   width="10.690781in"
   height="3.810014in"
   viewBox="0 0 271.54583 96.774356"
   version="1.1"
   id="svg32081"
   inkscape:version="0.92.1 r15371"
   sodipodi:docname="while_analogia.svg"
   inkscape:export-filename="/home/david/Proyectos/Presentaciones_CursoProgramacionOOCC/16_awk_scan_text_04/img/while_analogia.png"
   inkscape:export-xdpi="95"
   inkscape:export-ydpi="95">
  <defs
     id="defs32075">
    <marker
       inkscape:stockid="Arrow1Send"
       orient="auto"
       refY="0"
       refX="0"
       id="Arrow1Send"
       style="overflow:visible"
       inkscape:isstock="true">
      <path
         id="path1686"
         d="M 0,0 5,-5 -12.5,0 5,5 Z"
         style="fill:#000000;fill-opacity:1;fill-rule:evenodd;stroke:#000000;stroke-width:1.00000003pt;stroke-opacity:1"
         transform="matrix(-0.2,0,0,-0.2,-1.2,0)"
         inkscape:connector-curvature="0" />
    </marker>
  </defs>
  <sodipodi:namedview
     id="base"
     pagecolor="#ffffff"
     bordercolor="#666666"
     borderopacity="1.0"
     inkscape:pageopacity="0.0"
     inkscape:pageshadow="2"
     inkscape:zoom="0.9468267"
     inkscape:cx="579.39773"
     inkscape:cy="196.22169"
     inkscape:document-units="mm"
     inkscape:current-layer="layer1"
     showgrid="false"
     units="in"
     fit-margin-top="0"
     fit-margin-left="0"
     fit-margin-right="0"
     fit-margin-bottom="0"
     inkscape:window-width="1366"
     inkscape:window-height="709"
     inkscape:window-x="0"
     inkscape:window-y="0"
     inkscape:window-maximized="1" />
  <metadata
     id="metadata32078">
    <rdf:RDF>
      <cc:Work
         rdf:about="">
        <dc:format>image/svg+xml</dc:format>
        <dc:type
           rdf:resource="http://purl.org/dc/dcmitype/StillImage" />
        <dc:title />
      </cc:Work>
    </rdf:RDF>
  </metadata>
  <g
     inkscape:label="Capa 1"
     inkscape:groupmode="layer"
     id="layer1"
     transform="translate(-3.7417734,-105.07769)">
    <path
       style="opacity:1;fill:#c03f56;fill-opacity:1;stroke:none;stroke-width:0.58278459;stroke-miterlimit:4;stroke-dasharray:none;stroke-dashoffset:0;stroke-opacity:1"
       d="m 53.226281,116.28701 a 40.378655,40.378655 0 0 0 -40.378413,40.37841 40.378655,40.378655 0 0 0 40.378413,40.37893 40.378655,40.378655 0 0 0 40.378932,-40.37893 40.378655,40.378655 0 0 0 -40.378932,-40.37841 z m 5.16e-4,6.12779 c 8.967058,-6e-5 17.879925,3.69092 24.220744,10.03143 6.340819,6.34051 10.03105,15.25162 10.031428,24.21867 5.9e-5,8.96734 -3.690567,17.87989 -10.031428,24.22075 -6.340861,6.34086 -15.253411,10.03097 -24.220744,10.03091 -8.967332,6e-5 -17.879882,-3.69005 -24.220743,-10.03091 -6.340861,-6.34086 -10.031486,-15.25341 -10.031428,-24.22075 3.78e-4,-8.96705 3.690609,-17.87816 10.031428,-24.21867 6.340818,-6.34051 15.253689,-10.03149 24.220743,-10.03143 z"
       id="path32083"
       inkscape:connector-curvature="0" />
    <rect
       style="opacity:1;fill:#23a523;fill-opacity:1;stroke:none;stroke-width:0.52916664;stroke-miterlimit:4;stroke-dasharray:none;stroke-dashoffset:0;stroke-opacity:1"
       id="rect32090"
       width="271.54584"
       height="4.8108511"
       x="3.7417734"
       y="197.0412" />
    <path
       style="fill:#000080;stroke:#000000;stroke-width:0.26458332px;stroke-linecap:butt;stroke-linejoin:miter;stroke-opacity:1"
       d="m 168.3798,196.23939 7.12102,-26.57601 15.20652,26.33846 z"
       id="path32092"
       inkscape:connector-curvature="0" />
    <path
       sodipodi:type="spiral"
       style="fill:none;fill-rule:evenodd;stroke:#000000;stroke-width:0.26458332"
       id="path32637"
       sodipodi:cx="52.919365"
       sodipodi:cy="157.75258"
       sodipodi:expansion="1"
       sodipodi:revolution="3.4894888"
       sodipodi:radius="33.919941"
       sodipodi:argument="-21.729349"
       sodipodi:t0="0"
       d="m 52.919365,157.75258 c -1.412306,-0.37843 -0.186671,-2.09046 0.628969,-2.34735 2.210335,-0.69613 3.974133,1.6315 4.065722,3.60529 0.163832,3.53063 -3.303183,5.95701 -6.5816,5.7841 -4.811207,-0.25376 -7.979062,-4.99047 -7.502474,-9.55792 0.635218,-6.0877 6.682347,-10.01662 12.53423,-9.22085 7.363999,1.0014 12.061972,8.3762 10.939227,15.51055 -1.359794,8.64064 -10.071119,14.11178 -18.486861,12.6576 -9.91766,-1.7137 -16.164389,-11.76669 -14.375979,-21.46318 2.06479,-11.19497 13.462706,-18.21886 24.439492,-16.09435 12.472521,2.414 20.274639,15.15903 17.812731,27.4158 -2.761889,13.75026 -16.855578,22.33137 -30.392122,19.53111 -15.028129,-3.10882 -24.38881,-18.5523 -21.249484,-33.36844 3.455033,-16.30612 20.249158,-26.44679 36.344753,-22.96786 16.739413,3.6181 27.632897,20.34442 25.095497,37.1132" />
    <path
       style="fill:none;stroke:#000000;stroke-width:0.79374999;stroke-linecap:butt;stroke-linejoin:miter;stroke-miterlimit:4;stroke-dasharray:none;stroke-opacity:1;marker-end:url(#Arrow1Send)"
       d="m 96.751569,142.78548 c 0,0 3.224544,15.78213 1.603617,22.98518 -1.551468,6.89439 -5.573069,14.13163 -10.156244,19.51068 -3.229959,3.79084 -10.423511,9.35443 -10.423511,9.35443"
       id="path32639"
       inkscape:connector-curvature="0"
       sodipodi:nodetypes="cssc" />
    <text
       xml:space="preserve"
       style="font-style:normal;font-weight:normal;font-size:8.62407398px;line-height:1.25;font-family:sans-serif;letter-spacing:0px;word-spacing:0px;fill:#000000;fill-opacity:1;stroke:none;stroke-width:0.21560185"
       x="106.82986"
       y="111.62997"
       id="text32675"><tspan
         sodipodi:role="line"
         id="tspan32673"
         x="106.82986"
         y="111.62997"
         style="stroke-width:0.21560185">While es como una rueda que</tspan><tspan
         sodipodi:role="line"
         x="106.82986"
         y="122.41006"
         style="stroke-width:0.21560185"
         id="tspan32677">siempre ejecuta código mientras</tspan><tspan
         sodipodi:role="line"
         x="106.82986"
         y="133.19016"
         style="stroke-width:0.21560185"
         id="tspan32679">no ucurra la 'condición de dentención'</tspan></text>
    <text
       xml:space="preserve"
       style="font-style:normal;font-weight:normal;font-size:10.58333302px;line-height:1.25;font-family:sans-serif;letter-spacing:0px;word-spacing:0px;fill:#000000;fill-opacity:1;stroke:none;stroke-width:0.26458332"
       x="190.70734"
       y="166.07303"
       id="text32683"><tspan
         sodipodi:role="line"
         id="tspan32681"
         x="190.70734"
         y="166.07303"
         style="stroke-width:0.26458332">Condición para</tspan><tspan
         sodipodi:role="line"
         x="190.70734"
         y="179.3022"
         style="stroke-width:0.26458332"
         id="tspan32685">detenerse</tspan></text>
    <path
       style="fill:none;stroke:#000000;stroke-width:0.26458332px;stroke-linecap:butt;stroke-linejoin:miter;stroke-opacity:1"
       d="m 187.08867,176.72871 -4.07809,7.06345 5.86905,-3.38849 h 83.20075 v -23.4529 h -84.99171 c 0.36583,1.39314 0,12.95013 0,19.77794 z"
       id="path32687"
       inkscape:connector-curvature="0"
       sodipodi:nodetypes="ccccccc" />
    <path
       style="opacity:1;fill:#edafb2;fill-opacity:1;stroke:none;stroke-width:3;stroke-miterlimit:4;stroke-dasharray:none;stroke-dashoffset:0;stroke-opacity:1"
       d="M 524.11914 154.5918 L 523.67773 177.87305 L 254.55859 177.87305 L 254.55859 187.97461 L 523.48633 187.97461 L 522.94336 216.63672 L 577.26367 186.63281 L 524.11914 154.5918 z "
       transform="matrix(0.26458333,0,0,0.26458333,3.7417734,105.07769)"
       id="rect32708" />
  </g>
</svg>
