<?xml version="1.0" encoding="UTF-8" standalone="no"?>
<!-- Created with Inkscape (http://www.inkscape.org/) -->

<svg
   xmlns:dc="http://purl.org/dc/elements/1.1/"
   xmlns:cc="http://creativecommons.org/ns#"
   xmlns:rdf="http://www.w3.org/1999/02/22-rdf-syntax-ns#"
   xmlns:svg="http://www.w3.org/2000/svg"
   xmlns="http://www.w3.org/2000/svg"
   xmlns:sodipodi="http://sodipodi.sourceforge.net/DTD/sodipodi-0.dtd"
   xmlns:inkscape="http://www.inkscape.org/namespaces/inkscape"
   width="188.62347mm"
   height="51.97625mm"
   viewBox="0 0 188.62347 51.97625"
   version="1.1"
   id="svg8"
   inkscape:version="0.92.1 r15371"
   sodipodi:docname="lista.svg"
   inkscape:export-filename="/home/david/Proyectos/Presentaciones_CursoProgramacionOOCC/16_awk_scan_text_04/img/lista.png"
   inkscape:export-xdpi="95"
   inkscape:export-ydpi="95">
  <defs
     id="defs2" />
  <sodipodi:namedview
     id="base"
     pagecolor="#ffffff"
     bordercolor="#666666"
     borderopacity="1.0"
     inkscape:pageopacity="0.0"
     inkscape:pageshadow="2"
     inkscape:zoom="0.66950758"
     inkscape:cx="477.58804"
     inkscape:cy="120.41574"
     inkscape:document-units="mm"
     inkscape:current-layer="layer1"
     showgrid="false"
     fit-margin-top="0"
     fit-margin-left="0"
     fit-margin-right="0"
     fit-margin-bottom="0"
     inkscape:window-width="1366"
     inkscape:window-height="709"
     inkscape:window-x="0"
     inkscape:window-y="0"
     inkscape:window-maximized="1" />
  <metadata
     id="metadata5">
    <rdf:RDF>
      <cc:Work
         rdf:about="">
        <dc:format>image/svg+xml</dc:format>
        <dc:type
           rdf:resource="http://purl.org/dc/dcmitype/StillImage" />
        <dc:title></dc:title>
      </cc:Work>
    </rdf:RDF>
  </metadata>
  <g
     inkscape:label="Capa 1"
     inkscape:groupmode="layer"
     id="layer1"
     transform="translate(19.002069,-84.623924)">
    <rect
       style="opacity:1;fill:#fbcea9;fill-opacity:1;stroke:none;stroke-width:1.05833328;stroke-miterlimit:4;stroke-dasharray:none;stroke-dashoffset:0;stroke-opacity:1"
       id="rect10"
       width="17.325417"
       height="51.97625"
       x="14.530993"
       y="84.623924"
       ry="0.88917994" />
    <rect
       ry="0.88917994"
       y="84.623924"
       x="32.753922"
       height="51.97625"
       width="17.325417"
       id="rect14"
       style="opacity:1;fill:#fbcea9;fill-opacity:1;stroke:none;stroke-width:1.05833328;stroke-miterlimit:4;stroke-dasharray:none;stroke-dashoffset:0;stroke-opacity:1" />
    <rect
       ry="0.88917994"
       y="84.623924"
       x="50.976849"
       height="51.97625"
       width="17.325417"
       id="rect16"
       style="opacity:1;fill:#fbcea9;fill-opacity:1;stroke:none;stroke-width:1.05833328;stroke-miterlimit:4;stroke-dasharray:none;stroke-dashoffset:0;stroke-opacity:1" />
    <rect
       style="opacity:1;fill:#fbcea9;fill-opacity:1;stroke:none;stroke-width:1.05833328;stroke-miterlimit:4;stroke-dasharray:none;stroke-dashoffset:0;stroke-opacity:1"
       id="rect18"
       width="17.325417"
       height="51.97625"
       x="69.199783"
       y="84.623924"
       ry="0.88917994" />
    <rect
       ry="0.88917994"
       y="84.623924"
       x="87.422707"
       height="51.97625"
       width="17.325417"
       id="rect20"
       style="opacity:1;fill:#fbcea9;fill-opacity:1;stroke:none;stroke-width:1.05833328;stroke-miterlimit:4;stroke-dasharray:none;stroke-dashoffset:0;stroke-opacity:1" />
    <rect
       style="opacity:1;fill:#fbcea9;fill-opacity:1;stroke:none;stroke-width:1.05833328;stroke-miterlimit:4;stroke-dasharray:none;stroke-dashoffset:0;stroke-opacity:1"
       id="rect22"
       width="17.325417"
       height="51.97625"
       x="105.64563"
       y="84.623924"
       ry="0.88917994" />
    <rect
       style="opacity:1;fill:#fbcea9;fill-opacity:1;stroke:none;stroke-width:1.05833328;stroke-miterlimit:4;stroke-dasharray:none;stroke-dashoffset:0;stroke-opacity:1"
       id="rect24"
       width="17.325417"
       height="51.97625"
       x="123.86856"
       y="84.623924"
       ry="0.88917994" />
    <rect
       ry="0.88917994"
       y="84.623924"
       x="142.09149"
       height="51.97625"
       width="17.325417"
       id="rect26"
       style="opacity:1;fill:#fbcea9;fill-opacity:1;stroke:none;stroke-width:1.05833328;stroke-miterlimit:4;stroke-dasharray:none;stroke-dashoffset:0;stroke-opacity:1" />
    <rect
       style="opacity:1;fill:#ff0000;fill-opacity:1;stroke:none;stroke-width:1.12159765;stroke-miterlimit:4;stroke-dasharray:none;stroke-dashoffset:0;stroke-opacity:1"
       id="rect28"
       width="188.62347"
       height="5.0299592"
       x="-19.002069"
       y="108.09707"
       ry="0.88917994" />
    <text
       xml:space="preserve"
       style="font-style:normal;font-weight:normal;font-size:10.58333302px;line-height:1.25;font-family:sans-serif;letter-spacing:0px;word-spacing:0px;fill:#000000;fill-opacity:1;stroke:none;stroke-width:0.26458332"
       x="-15.928205"
       y="125.98138"
       id="text32"><tspan
         sodipodi:role="line"
         id="tspan30"
         x="-15.928205"
         y="125.98138"
         style="stroke-width:0.26458332">valor</tspan></text>
    <text
       id="text36"
       y="101.94935"
       x="-17.045975"
       style="font-style:normal;font-weight:normal;font-size:10.58333302px;line-height:1.25;font-family:sans-serif;letter-spacing:0px;word-spacing:0px;fill:#000000;fill-opacity:1;stroke:none;stroke-width:0.26458332"
       xml:space="preserve"><tspan
         style="stroke-width:0.26458332"
         y="101.94935"
         x="-17.045975"
         id="tspan34"
         sodipodi:role="line">índex</tspan></text>
    <text
       xml:space="preserve"
       style="font-style:normal;font-weight:normal;font-size:10.58333302px;line-height:1.25;font-family:sans-serif;letter-spacing:0px;word-spacing:0px;fill:#000000;fill-opacity:1;stroke:none;stroke-width:0.26458332"
       x="19.733965"
       y="99.439537"
       id="text44"><tspan
         sodipodi:role="line"
         id="tspan42"
         x="19.733965"
         y="99.439537"
         style="stroke-width:0.26458332">1</tspan></text>
    <text
       xml:space="preserve"
       style="font-style:normal;font-weight:normal;font-size:10.58333302px;line-height:1.25;font-family:sans-serif;letter-spacing:0px;word-spacing:0px;fill:#000000;fill-opacity:1;stroke:none;stroke-width:0.26458332"
       x="38.19202"
       y="99.5093"
       id="text48"><tspan
         sodipodi:role="line"
         id="tspan46"
         x="38.19202"
         y="99.5093"
         style="stroke-width:0.26458332">2</tspan></text>
    <text
       xml:space="preserve"
       style="font-style:normal;font-weight:normal;font-size:10.58333302px;line-height:1.25;font-family:sans-serif;letter-spacing:0px;word-spacing:0px;fill:#000000;fill-opacity:1;stroke:none;stroke-width:0.26458332"
       x="56.293507"
       y="99.434372"
       id="text52"><tspan
         sodipodi:role="line"
         id="tspan50"
         x="56.293507"
         y="99.434372"
         style="stroke-width:0.26458332">3</tspan></text>
    <text
       xml:space="preserve"
       style="font-style:normal;font-weight:normal;font-size:10.58333302px;line-height:1.25;font-family:sans-serif;letter-spacing:0px;word-spacing:0px;fill:#000000;fill-opacity:1;stroke:none;stroke-width:0.26458332"
       x="74.534531"
       y="99.439537"
       id="text56"><tspan
         sodipodi:role="line"
         id="tspan54"
         x="74.534531"
         y="99.439537"
         style="stroke-width:0.26458332">4</tspan></text>
    <text
       xml:space="preserve"
       style="font-style:normal;font-weight:normal;font-size:10.58333302px;line-height:1.25;font-family:sans-serif;letter-spacing:0px;word-spacing:0px;fill:#000000;fill-opacity:1;stroke:none;stroke-width:0.26458332"
       x="92.772957"
       y="99.364609"
       id="text60"><tspan
         sodipodi:role="line"
         id="tspan58"
         x="92.772957"
         y="99.364609"
         style="stroke-width:0.26458332">5</tspan></text>
    <text
       xml:space="preserve"
       style="font-style:normal;font-weight:normal;font-size:10.58333302px;line-height:1.25;font-family:sans-serif;letter-spacing:0px;word-spacing:0px;fill:#000000;fill-opacity:1;stroke:none;stroke-width:0.26458332"
       x="110.90545"
       y="99.434372"
       id="text64"><tspan
         sodipodi:role="line"
         id="tspan62"
         x="110.90545"
         y="99.434372"
         style="stroke-width:0.26458332">6</tspan></text>
    <text
       xml:space="preserve"
       style="font-style:normal;font-weight:normal;font-size:10.58333302px;line-height:1.25;font-family:sans-serif;letter-spacing:0px;word-spacing:0px;fill:#000000;fill-opacity:1;stroke:none;stroke-width:0.26458332"
       x="129.18263"
       y="99.439537"
       id="text68"><tspan
         sodipodi:role="line"
         id="tspan66"
         x="129.18263"
         y="99.439537"
         style="stroke-width:0.26458332">7</tspan></text>
    <text
       xml:space="preserve"
       style="font-style:normal;font-weight:normal;font-size:10.58333302px;line-height:1.25;font-family:sans-serif;letter-spacing:0px;word-spacing:0px;fill:#000000;fill-opacity:1;stroke:none;stroke-width:0.26458332"
       x="147.39006"
       y="99.434372"
       id="text72"><tspan
         sodipodi:role="line"
         id="tspan70"
         x="147.39006"
         y="99.434372"
         style="stroke-width:0.26458332">8</tspan></text>
    <text
       xml:space="preserve"
       style="font-style:normal;font-weight:normal;font-size:5.90961552px;line-height:1.25;font-family:sans-serif;letter-spacing:0px;word-spacing:0px;fill:#000000;fill-opacity:1;stroke:none;stroke-width:0.14774038"
       x="18.118328"
       y="123.812"
       id="text76"><tspan
         sodipodi:role="line"
         id="tspan74"
         x="18.118328"
         y="123.812"
         style="stroke-width:0.14774038">100</tspan></text>
    <text
       id="text80"
       y="123.812"
       x="37.482685"
       style="font-style:normal;font-weight:normal;font-size:5.90961552px;line-height:1.25;font-family:sans-serif;letter-spacing:0px;word-spacing:0px;fill:#000000;fill-opacity:1;stroke:none;stroke-width:0.14774038"
       xml:space="preserve"><tspan
         style="stroke-width:0.14774038"
         y="123.812"
         x="37.482685"
         id="tspan78"
         sodipodi:role="line">99</tspan></text>
    <text
       xml:space="preserve"
       style="font-style:normal;font-weight:normal;font-size:5.90961552px;line-height:1.25;font-family:sans-serif;letter-spacing:0px;word-spacing:0px;fill:#000000;fill-opacity:1;stroke:none;stroke-width:0.14774038"
       x="56.451851"
       y="123.812"
       id="text84"><tspan
         sodipodi:role="line"
         id="tspan82"
         x="56.451851"
         y="123.812"
         style="stroke-width:0.14774038">34</tspan></text>
    <text
       id="text88"
       y="123.812"
       x="73.445061"
       style="font-style:normal;font-weight:normal;font-size:5.90961552px;line-height:1.25;font-family:sans-serif;letter-spacing:0px;word-spacing:0px;fill:#000000;fill-opacity:1;stroke:none;stroke-width:0.14774038"
       xml:space="preserve"><tspan
         style="stroke-width:0.14774038"
         y="123.812"
         x="73.445061"
         id="tspan86"
         sodipodi:role="line">13</tspan></text>
    <text
       xml:space="preserve"
       style="font-style:normal;font-weight:normal;font-size:5.90961552px;line-height:1.25;font-family:sans-serif;letter-spacing:0px;word-spacing:0px;fill:#000000;fill-opacity:1;stroke:none;stroke-width:0.14774038"
       x="92.586853"
       y="123.812"
       id="text92"><tspan
         sodipodi:role="line"
         id="tspan90"
         x="92.586853"
         y="123.812"
         style="stroke-width:0.14774038">56</tspan></text>
    <text
       id="text96"
       y="123.812"
       x="110.76564"
       style="font-style:normal;font-weight:normal;font-size:5.90961552px;line-height:1.25;font-family:sans-serif;letter-spacing:0px;word-spacing:0px;fill:#000000;fill-opacity:1;stroke:none;stroke-width:0.14774038"
       xml:space="preserve"><tspan
         style="stroke-width:0.14774038"
         y="123.812"
         x="110.76564"
         id="tspan94"
         sodipodi:role="line">88</tspan></text>
    <text
       xml:space="preserve"
       style="font-style:normal;font-weight:normal;font-size:5.90961552px;line-height:1.25;font-family:sans-serif;letter-spacing:0px;word-spacing:0px;fill:#000000;fill-opacity:1;stroke:none;stroke-width:0.14774038"
       x="128.74683"
       y="123.812"
       id="text100"><tspan
         sodipodi:role="line"
         id="tspan98"
         x="128.74683"
         y="123.812"
         style="stroke-width:0.14774038">0</tspan></text>
    <text
       id="text104"
       y="123.812"
       x="148.50638"
       style="font-style:normal;font-weight:normal;font-size:5.90961552px;line-height:1.25;font-family:sans-serif;letter-spacing:0px;word-spacing:0px;fill:#000000;fill-opacity:1;stroke:none;stroke-width:0.14774038"
       xml:space="preserve"><tspan
         style="stroke-width:0.14774038"
         y="123.812"
         x="148.50638"
         id="tspan102"
         sodipodi:role="line">77</tspan></text>
  </g>
</svg>
