<?xml version="1.0" encoding="UTF-8" standalone="no"?>
<!-- Created with Inkscape (http://www.inkscape.org/) -->

<svg
   xmlns:dc="http://purl.org/dc/elements/1.1/"
   xmlns:cc="http://creativecommons.org/ns#"
   xmlns:rdf="http://www.w3.org/1999/02/22-rdf-syntax-ns#"
   xmlns:svg="http://www.w3.org/2000/svg"
   xmlns="http://www.w3.org/2000/svg"
   xmlns:sodipodi="http://sodipodi.sourceforge.net/DTD/sodipodi-0.dtd"
   xmlns:inkscape="http://www.inkscape.org/namespaces/inkscape"
   width="272.4646mm"
   height="205.79063mm"
   viewBox="0 0 272.4646 205.79063"
   version="1.1"
   id="svg13122"
   inkscape:version="0.92.1 r15371"
   sodipodi:docname="econtrol_if.svg"
   inkscape:export-filename="/home/david/Documentos/4libertades/jornadas/awk, poder en terminal/econtrolif.png"
   inkscape:export-xdpi="95"
   inkscape:export-ydpi="95">
  <defs
     id="defs13116">
    <marker
       inkscape:stockid="Arrow1Send"
       orient="auto"
       refY="0"
       refX="0"
       id="marker24800"
       style="overflow:visible"
       inkscape:isstock="true">
      <path
         id="path24798"
         d="M 0,0 5,-5 -12.5,0 5,5 Z"
         style="fill:#000000;fill-opacity:1;fill-rule:evenodd;stroke:#000000;stroke-width:1.00000003pt;stroke-opacity:1"
         transform="matrix(-0.2,0,0,-0.2,-1.2,0)"
         inkscape:connector-curvature="0" />
    </marker>
    <marker
       inkscape:isstock="true"
       style="overflow:visible"
       id="marker24504"
       refX="0"
       refY="0"
       orient="auto"
       inkscape:stockid="Arrow1Send"
       inkscape:collect="always">
      <path
         transform="matrix(-0.2,0,0,-0.2,-1.2,0)"
         style="fill:#000000;fill-opacity:1;fill-rule:evenodd;stroke:#000000;stroke-width:1.00000003pt;stroke-opacity:1"
         d="M 0,0 5,-5 -12.5,0 5,5 Z"
         id="path24502"
         inkscape:connector-curvature="0" />
    </marker>
    <marker
       inkscape:stockid="Arrow1Send"
       orient="auto"
       refY="0"
       refX="0"
       id="marker23202"
       style="overflow:visible"
       inkscape:isstock="true">
      <path
         id="path23200"
         d="M 0,0 5,-5 -12.5,0 5,5 Z"
         style="fill:#000000;fill-opacity:1;fill-rule:evenodd;stroke:#000000;stroke-width:1.00000003pt;stroke-opacity:1"
         transform="matrix(-0.2,0,0,-0.2,-1.2,0)"
         inkscape:connector-curvature="0" />
    </marker>
    <marker
       inkscape:isstock="true"
       style="overflow:visible"
       id="marker19008"
       refX="0"
       refY="0"
       orient="auto"
       inkscape:stockid="Arrow1Send">
      <path
         transform="matrix(-0.2,0,0,-0.2,-1.2,0)"
         style="fill:#000000;fill-opacity:1;fill-rule:evenodd;stroke:#000000;stroke-width:1.00000003pt;stroke-opacity:1"
         d="M 0,0 5,-5 -12.5,0 5,5 Z"
         id="path19006"
         inkscape:connector-curvature="0" />
    </marker>
    <marker
       inkscape:isstock="true"
       style="overflow:visible"
       id="marker16020"
       refX="0"
       refY="0"
       orient="auto"
       inkscape:stockid="Arrow1Send">
      <path
         transform="matrix(-0.2,0,0,-0.2,-1.2,0)"
         style="fill:#000000;fill-opacity:1;fill-rule:evenodd;stroke:#000000;stroke-width:1.00000003pt;stroke-opacity:1"
         d="M 0,0 5,-5 -12.5,0 5,5 Z"
         id="path16018"
         inkscape:connector-curvature="0" />
    </marker>
    <marker
       inkscape:isstock="true"
       style="overflow:visible"
       id="marker14358"
       refX="0"
       refY="0"
       orient="auto"
       inkscape:stockid="Arrow1Send"
       inkscape:collect="always">
      <path
         transform="matrix(-0.2,0,0,-0.2,-1.2,0)"
         style="fill:#000000;fill-opacity:1;fill-rule:evenodd;stroke:#000000;stroke-width:1.00000003pt;stroke-opacity:1"
         d="M 0,0 5,-5 -12.5,0 5,5 Z"
         id="path14356"
         inkscape:connector-curvature="0" />
    </marker>
    <marker
       inkscape:stockid="Arrow1Send"
       orient="auto"
       refY="0"
       refX="0"
       id="marker14022"
       style="overflow:visible"
       inkscape:isstock="true"
       inkscape:collect="always">
      <path
         id="path14020"
         d="M 0,0 5,-5 -12.5,0 5,5 Z"
         style="fill:#000000;fill-opacity:1;fill-rule:evenodd;stroke:#000000;stroke-width:1.00000003pt;stroke-opacity:1"
         transform="matrix(-0.2,0,0,-0.2,-1.2,0)"
         inkscape:connector-curvature="0" />
    </marker>
    <marker
       inkscape:stockid="Arrow1Send"
       orient="auto"
       refY="0"
       refX="0"
       id="marker13916"
       style="overflow:visible"
       inkscape:isstock="true">
      <path
         id="path13914"
         d="M 0,0 5,-5 -12.5,0 5,5 Z"
         style="fill:#000000;fill-opacity:1;fill-rule:evenodd;stroke:#000000;stroke-width:1.00000003pt;stroke-opacity:1"
         transform="matrix(-0.2,0,0,-0.2,-1.2,0)"
         inkscape:connector-curvature="0" />
    </marker>
    <marker
       inkscape:stockid="Arrow1Send"
       orient="auto"
       refY="0"
       refX="0"
       id="Arrow1Send"
       style="overflow:visible"
       inkscape:isstock="true"
       inkscape:collect="always">
      <path
         id="path1686"
         d="M 0,0 5,-5 -12.5,0 5,5 Z"
         style="fill:#000000;fill-opacity:1;fill-rule:evenodd;stroke:#000000;stroke-width:1.00000003pt;stroke-opacity:1"
         transform="matrix(-0.2,0,0,-0.2,-1.2,0)"
         inkscape:connector-curvature="0" />
    </marker>
    <marker
       inkscape:stockid="Arrow2Lend"
       orient="auto"
       refY="0"
       refX="0"
       id="Arrow2Lend"
       style="overflow:visible"
       inkscape:isstock="true">
      <path
         id="path1692"
         style="fill:#000000;fill-opacity:1;fill-rule:evenodd;stroke:#000000;stroke-width:0.625;stroke-linejoin:round;stroke-opacity:1"
         d="M 8.7185878,4.0337352 -2.2072895,0.01601326 8.7185884,-4.0017078 c -1.7454984,2.3720609 -1.7354408,5.6174519 -6e-7,8.035443 z"
         transform="matrix(-1.1,0,0,-1.1,-1.1,0)"
         inkscape:connector-curvature="0" />
    </marker>
  </defs>
  <sodipodi:namedview
     id="base"
     pagecolor="#ffffff"
     bordercolor="#666666"
     borderopacity="1.0"
     inkscape:pageopacity="0.0"
     inkscape:pageshadow="2"
     inkscape:zoom="0.7"
     inkscape:cx="346.56993"
     inkscape:cy="73.904133"
     inkscape:document-units="mm"
     inkscape:current-layer="layer1"
     showgrid="false"
     units="mm"
     inkscape:window-width="1366"
     inkscape:window-height="709"
     inkscape:window-x="0"
     inkscape:window-y="0"
     inkscape:window-maximized="1"
     fit-margin-top="5"
     fit-margin-left="5"
     fit-margin-right="5"
     fit-margin-bottom="5" />
  <metadata
     id="metadata13119">
    <rdf:RDF>
      <cc:Work
         rdf:about="">
        <dc:format>image/svg+xml</dc:format>
        <dc:type
           rdf:resource="http://purl.org/dc/dcmitype/StillImage" />
        <dc:title></dc:title>
      </cc:Work>
    </rdf:RDF>
  </metadata>
  <g
     inkscape:label="Capa 1"
     inkscape:groupmode="layer"
     id="layer1"
     transform="translate(2.9041519,-90.00952)">
    <circle
       style="opacity:1;fill:#00ff00;fill-opacity:1;stroke:#0030ff;stroke-width:0.96334475;stroke-miterlimit:4;stroke-dasharray:none;stroke-dashoffset:0;stroke-opacity:1"
       id="path13143"
       cx="70.335571"
       cy="108.90921"
       r="13.418017" />
    <path
       style="opacity:1;fill:#ffaf00;fill-opacity:1;stroke:#0030ff;stroke-width:0.96334475;stroke-miterlimit:4;stroke-dasharray:none;stroke-dashoffset:0;stroke-opacity:1"
       d="m 85.133826,99.421447 c 1.792919,2.819033 2.796238,6.144433 2.796428,9.487163 2.51e-4,3.34343 -1.003393,6.66934 -2.796898,9.48857 h 69.063534 c 5.25634,0 9.48764,-4.23177 9.48764,-9.4881 0,-5.25634 -4.2313,-9.487633 -9.48764,-9.487633 z"
       id="rect13692"
       inkscape:connector-curvature="0" />
    <text
       xml:space="preserve"
       style="font-style:normal;font-weight:normal;font-size:4.9046998px;line-height:1.25;font-family:sans-serif;letter-spacing:0px;word-spacing:0px;fill:#000000;fill-opacity:1;stroke:none;stroke-width:0.12261749"
       x="88.45739"
       y="107.13284"
       id="text13701"><tspan
         sodipodi:role="line"
         id="tspan13699"
         x="88.45739"
         y="107.13284"
         style="stroke-width:0.12261749">Para bifurcar caminos en base</tspan><tspan
         sodipodi:role="line"
         x="88.45739"
         y="113.26372"
         style="stroke-width:0.12261749"
         id="tspan13703">a condiciones definidas</tspan></text>
    <ellipse
       id="circle13705"
       style="opacity:1;fill:#00ff00;fill-opacity:1;stroke:#0030ff;stroke-width:1.30537903;stroke-miterlimit:4;stroke-dasharray:none;stroke-dashoffset:0;stroke-opacity:1"
       cy="136.26219"
       cx="102.50977"
       rx="24.95565"
       ry="13.247001" />
    <text
       id="text13709"
       y="140.5515"
       x="78.775879"
       style="font-style:normal;font-weight:normal;font-size:11.30957699px;line-height:1.25;font-family:sans-serif;letter-spacing:0px;word-spacing:0px;fill:#000000;fill-opacity:1;stroke:none;stroke-width:0.28273943"
       xml:space="preserve"><tspan
         style="stroke-width:0.28273943"
         y="140.5515"
         x="78.775879"
         id="tspan13707"
         sodipodi:role="line">else if ()</tspan></text>
    <text
       xml:space="preserve"
       style="font-style:normal;font-weight:normal;font-size:11.30957699px;line-height:1.25;font-family:sans-serif;letter-spacing:0px;word-spacing:0px;fill:#000000;fill-opacity:1;stroke:none;stroke-width:0.28273943"
       x="60.278175"
       y="112.41138"
       id="text13713"><tspan
         sodipodi:role="line"
         id="tspan13711"
         x="60.278175"
         y="112.41138"
         style="stroke-width:0.28273943">if ()</tspan></text>
    <ellipse
       ry="13.247001"
       rx="24.95565"
       cx="140.91443"
       cy="161.30872"
       style="opacity:1;fill:#00ff00;fill-opacity:1;stroke:#0030ff;stroke-width:1.30537903;stroke-miterlimit:4;stroke-dasharray:none;stroke-dashoffset:0;stroke-opacity:1"
       id="ellipse13715" />
    <text
       xml:space="preserve"
       style="font-style:normal;font-weight:normal;font-size:11.30957699px;line-height:1.25;font-family:sans-serif;letter-spacing:0px;word-spacing:0px;fill:#000000;fill-opacity:1;stroke:none;stroke-width:0.28273943"
       x="124.1379"
       y="165.59801"
       id="text13719"><tspan
         sodipodi:role="line"
         id="tspan13717"
         x="124.1379"
         y="165.59801"
         style="stroke-width:0.28273943">else ()</tspan></text>
    <path
       style="opacity:1;fill:#ffaf00;fill-opacity:1;stroke:#0030ff;stroke-width:0.96334481;stroke-miterlimit:4;stroke-dasharray:none;stroke-dashoffset:0;stroke-opacity:1"
       d="m 128.96838,126.1376 c 2.6736,2.7839 4.42701,6.22342 4.4269,10.12498 a 5.931102,5.931102 0 0 1 0,0.002 c -5.8e-4,3.32526 -1.27517,6.31489 -3.30676,8.84923 h 67.24393 c 5.25634,0 9.48767,-4.23173 9.48767,-9.48806 0,-5.25634 -4.23133,-9.48767 -9.48767,-9.48767 z"
       id="path13721"
       inkscape:connector-curvature="0" />
    <text
       id="text13727"
       y="133.84912"
       x="134.09773"
       style="font-style:normal;font-weight:normal;font-size:4.9046998px;line-height:1.25;font-family:sans-serif;letter-spacing:0px;word-spacing:0px;fill:#000000;fill-opacity:1;stroke:none;stroke-width:0.12261749"
       xml:space="preserve"><tspan
         id="tspan13725"
         style="stroke-width:0.12261749"
         y="133.84912"
         x="134.09773"
         sodipodi:role="line">Si existe otra condición </tspan><tspan
         style="stroke-width:0.12261749"
         y="139.98"
         x="134.09773"
         sodipodi:role="line"
         id="tspan13746">opcional</tspan></text>
    <path
       id="path13742"
       d="m 165.98157,151.74071 c 2.6736,2.7839 4.42701,6.22342 4.4269,10.12498 a 5.931102,5.931102 0 0 1 0,0.001 c -5.8e-4,3.32525 -1.27517,6.31489 -3.30676,8.84922 h 67.24393 c 5.25634,0 9.48767,-4.23172 9.48767,-9.48805 0,-5.25634 -4.23133,-9.48767 -9.48767,-9.48767 z"
       style="opacity:1;fill:#ffaf00;fill-opacity:1;stroke:#0030ff;stroke-width:0.96334475;stroke-miterlimit:4;stroke-dasharray:none;stroke-dashoffset:0;stroke-opacity:1"
       inkscape:connector-curvature="0" />
    <text
       xml:space="preserve"
       style="font-style:normal;font-weight:normal;font-size:4.9046998px;line-height:1.25;font-family:sans-serif;letter-spacing:0px;word-spacing:0px;fill:#000000;fill-opacity:1;stroke:none;stroke-width:0.12261749"
       x="172.00172"
       y="160.56541"
       id="text13752"><tspan
         id="tspan13750"
         sodipodi:role="line"
         x="172.00172"
         y="160.56541"
         style="stroke-width:0.12261749">Si hay una condición </tspan><tspan
         sodipodi:role="line"
         x="172.00172"
         y="166.69629"
         style="stroke-width:0.12261749"
         id="tspan13756">por defecto</tspan></text>
    <ellipse
       style="opacity:1;fill:#ffaf00;fill-opacity:1;stroke:#0030ff;stroke-width:0.9741618;stroke-miterlimit:4;stroke-dasharray:none;stroke-dashoffset:0;stroke-opacity:1"
       id="path13760"
       cx="50.004627"
       cy="201.60057"
       rx="14.783545"
       ry="9.0434322" />
    <text
       xml:space="preserve"
       style="font-style:normal;font-weight:normal;font-size:5.15227604px;line-height:1.25;font-family:sans-serif;letter-spacing:0px;word-spacing:0px;fill:#000000;fill-opacity:1;stroke:none;stroke-width:0.1288069"
       x="37.648788"
       y="203.29903"
       id="text13764"><tspan
         sodipodi:role="line"
         id="tspan13762"
         x="37.648788"
         y="203.29903"
         style="stroke-width:0.1288069">/Europa/</tspan></text>
    <path
       style="fill:none;stroke:#000000;stroke-width:1.45605898;stroke-linecap:butt;stroke-linejoin:miter;stroke-miterlimit:4;stroke-dasharray:none;stroke-opacity:1;marker-end:url(#Arrow1Send)"
       d="m 50.101915,172.41356 c 0,2.72412 0,18.29052 0,18.29052"
       id="path13766"
       inkscape:connector-curvature="0" />
    <text
       xml:space="preserve"
       style="font-style:normal;font-weight:normal;font-size:4.82720232px;line-height:1.25;font-family:sans-serif;text-align:center;letter-spacing:0px;word-spacing:0px;text-anchor:middle;fill:#000000;fill-opacity:1;stroke:none;stroke-width:0.12068006"
       x="51.311089"
       y="163.19719"
       id="text13906"><tspan
         sodipodi:role="line"
         id="tspan13904"
         x="51.311089"
         y="163.19719"
         style="text-align:center;text-anchor:middle;stroke-width:0.12068006">[$2]</tspan><tspan
         sodipodi:role="line"
         x="51.311089"
         y="169.23119"
         style="text-align:center;text-anchor:middle;stroke-width:0.12068006"
         id="tspan13908">Campo de Continente</tspan></text>
    <path
       style="fill:none;stroke:#000000;stroke-width:0.5291667;stroke-linecap:butt;stroke-linejoin:miter;stroke-miterlimit:4;stroke-dasharray:none;stroke-opacity:1;marker-end:url(#marker13916)"
       d="M 35.52976,206.28571 20.221726,221.59374"
       id="path13910"
       inkscape:connector-curvature="0" />
    <path
       inkscape:connector-curvature="0"
       id="path13912"
       d="m 63.688988,206.28571 15.308034,15.30803"
       style="fill:none;stroke:#000000;stroke-width:0.5291667;stroke-linecap:butt;stroke-linejoin:miter;stroke-miterlimit:4;stroke-dasharray:none;stroke-opacity:1;marker-end:url(#marker14022)" />
    <text
       xml:space="preserve"
       style="font-style:normal;font-weight:normal;font-size:10.58333302px;line-height:1.25;font-family:sans-serif;letter-spacing:0px;word-spacing:0px;fill:#000000;fill-opacity:1;stroke:none;stroke-width:0.26458332"
       x="27.025297"
       y="223.67262"
       id="text14224"><tspan
         sodipodi:role="line"
         id="tspan14222"
         x="27.025297"
         y="223.67262"
         style="stroke-width:0.26458332">No</tspan></text>
    <text
       id="text14228"
       y="223.67262"
       x="82.020836"
       style="font-style:normal;font-weight:normal;font-size:10.58333302px;line-height:1.25;font-family:sans-serif;letter-spacing:0px;word-spacing:0px;fill:#000000;fill-opacity:1;stroke:none;stroke-width:0.26458332"
       xml:space="preserve"><tspan
         style="stroke-width:0.26458332"
         y="223.67262"
         x="82.020836"
         id="tspan14226"
         sodipodi:role="line">SI</tspan></text>
    <rect
       style="opacity:1;fill:#ffddd8;fill-opacity:1;stroke:#0030ff;stroke-width:0.52916664;stroke-miterlimit:4;stroke-dasharray:none;stroke-dashoffset:0;stroke-opacity:1"
       id="rect14256"
       width="17.197916"
       height="18.331848"
       x="-160.6122"
       y="170.24243"
       ry="0"
       rx="0"
       transform="rotate(-45)" />
    <rect
       transform="rotate(-45)"
       rx="0"
       ry="0"
       y="213.5401"
       x="-117.31453"
       height="18.331848"
       width="17.197916"
       id="rect14258"
       style="opacity:1;fill:#aeff00;fill-opacity:1;stroke:#0030ff;stroke-width:0.52916664;stroke-miterlimit:4;stroke-dasharray:none;stroke-dashoffset:0;stroke-opacity:1" />
    <text
       xml:space="preserve"
       style="font-style:normal;font-weight:normal;font-size:4.6425786px;line-height:1.25;font-family:sans-serif;letter-spacing:0px;word-spacing:0px;fill:#000000;fill-opacity:1;stroke:none;stroke-width:0.11606447"
       x="71.977043"
       y="235.3027"
       id="text14262"><tspan
         sodipodi:role="line"
         id="tspan14260"
         x="71.977043"
         y="235.3027"
         style="stroke-width:0.11606447">print $0</tspan></text>
    <text
       id="text14266"
       y="235.3027"
       x="11.878829"
       style="font-style:normal;font-weight:normal;font-size:4.6425786px;line-height:1.25;font-family:sans-serif;letter-spacing:0px;word-spacing:0px;fill:#000000;fill-opacity:1;stroke:none;stroke-width:0.11606447"
       xml:space="preserve"><tspan
         style="stroke-width:0.11606447"
         y="235.3027"
         x="11.878829"
         id="tspan14264"
         sodipodi:role="line">saltar</tspan></text>
    <path
       inkscape:connector-curvature="0"
       id="path14354"
       d="m 19.772178,246.91212 10.429279,8.10925 h 71.043593"
       style="fill:none;stroke:#000000;stroke-width:1.45605898;stroke-linecap:butt;stroke-linejoin:miter;stroke-miterlimit:4;stroke-dasharray:none;stroke-opacity:1;marker-end:url(#marker14358)"
       sodipodi:nodetypes="ccc" />
    <ellipse
       ry="9.0434322"
       rx="14.783545"
       cy="201.60057"
       cx="149.42889"
       id="ellipse16958"
       style="opacity:1;fill:#ffaf00;fill-opacity:1;stroke:#0030ff;stroke-width:0.9741618;stroke-miterlimit:4;stroke-dasharray:none;stroke-dashoffset:0;stroke-opacity:1" />
    <text
       id="text16962"
       y="203.29903"
       x="143.12068"
       style="font-style:normal;font-weight:normal;font-size:5.15227604px;line-height:1.25;font-family:sans-serif;letter-spacing:0px;word-spacing:0px;fill:#000000;fill-opacity:1;stroke:none;stroke-width:0.1288069"
       xml:space="preserve"><tspan
         style="stroke-width:0.1288069"
         y="203.29903"
         x="143.12068"
         id="tspan16960"
         sodipodi:role="line">/Asia/</tspan></text>
    <path
       inkscape:connector-curvature="0"
       id="path16964"
       d="m 134.95402,206.28571 -15.30803,15.30803"
       style="fill:none;stroke:#000000;stroke-width:0.5291667;stroke-linecap:butt;stroke-linejoin:miter;stroke-miterlimit:4;stroke-dasharray:none;stroke-opacity:1;marker-end:url(#marker13916)" />
    <path
       style="fill:none;stroke:#000000;stroke-width:0.5291667;stroke-linecap:butt;stroke-linejoin:miter;stroke-miterlimit:4;stroke-dasharray:none;stroke-opacity:1;marker-end:url(#marker24504)"
       d="m 163.11325,206.28571 15.30804,15.30803"
       id="path16966"
       inkscape:connector-curvature="0" />
    <text
       id="text16970"
       y="223.67262"
       x="126.44956"
       style="font-style:normal;font-weight:normal;font-size:10.58333302px;line-height:1.25;font-family:sans-serif;letter-spacing:0px;word-spacing:0px;fill:#000000;fill-opacity:1;stroke:none;stroke-width:0.26458332"
       xml:space="preserve"><tspan
         style="stroke-width:0.26458332"
         y="223.67262"
         x="126.44956"
         id="tspan16968"
         sodipodi:role="line">No</tspan></text>
    <text
       xml:space="preserve"
       style="font-style:normal;font-weight:normal;font-size:10.58333302px;line-height:1.25;font-family:sans-serif;letter-spacing:0px;word-spacing:0px;fill:#000000;fill-opacity:1;stroke:none;stroke-width:0.26458332"
       x="181.44511"
       y="223.67262"
       id="text16974"><tspan
         sodipodi:role="line"
         id="tspan16972"
         x="181.44511"
         y="223.67262"
         style="stroke-width:0.26458332">SI</tspan></text>
    <rect
       transform="rotate(-45)"
       rx="0"
       ry="0"
       y="240.54602"
       x="-90.308632"
       height="18.331848"
       width="17.197916"
       id="rect16976"
       style="opacity:1;fill:#ffddd8;fill-opacity:1;stroke:#0030ff;stroke-width:0.52916664;stroke-miterlimit:4;stroke-dasharray:none;stroke-dashoffset:0;stroke-opacity:1" />
    <rect
       style="opacity:1;fill:#aeff00;fill-opacity:1;stroke:#0030ff;stroke-width:0.52916664;stroke-miterlimit:4;stroke-dasharray:none;stroke-dashoffset:0;stroke-opacity:1"
       id="rect16978"
       width="17.197916"
       height="18.331848"
       x="-47.010956"
       y="283.84366"
       ry="0"
       rx="0"
       transform="rotate(-45)" />
    <text
       id="text16982"
       y="235.3027"
       x="169.26317"
       style="font-style:normal;font-weight:normal;font-size:4.6425786px;line-height:1.25;font-family:sans-serif;letter-spacing:0px;word-spacing:0px;fill:#000000;fill-opacity:1;stroke:none;stroke-width:0.11606447"
       xml:space="preserve"><tspan
         style="stroke-width:0.11606447"
         y="235.3027"
         x="169.26317"
         id="tspan16980"
         sodipodi:role="line">print pais</tspan></text>
    <text
       xml:space="preserve"
       style="font-style:normal;font-weight:normal;font-size:4.6425786px;line-height:1.25;font-family:sans-serif;letter-spacing:0px;word-spacing:0px;fill:#000000;fill-opacity:1;stroke:none;stroke-width:0.11606447"
       x="111.30309"
       y="235.3027"
       id="text16986"><tspan
         sodipodi:role="line"
         id="tspan16984"
         x="111.30309"
         y="235.3027"
         style="stroke-width:0.11606447">saltar</tspan></text>
    <path
       inkscape:connector-curvature="0"
       id="path19004"
       d="m 101.24505,255.02137 0.55431,-68.83469 32.75972,9.40619"
       style="fill:none;stroke:#000000;stroke-width:1.45605898;stroke-linecap:butt;stroke-linejoin:miter;stroke-miterlimit:4;stroke-dasharray:none;stroke-opacity:1;marker-end:url(#marker19008)"
       sodipodi:nodetypes="ccc" />
    <text
       xml:space="preserve"
       style="font-style:normal;font-weight:normal;font-size:10.58333302px;line-height:1.25;font-family:sans-serif;letter-spacing:0px;word-spacing:0px;fill:#000000;fill-opacity:1;stroke:none;stroke-width:0.26458332"
       x="23.056549"
       y="204.51439"
       id="text23164"><tspan
         sodipodi:role="line"
         id="tspan23162"
         x="23.056549"
         y="204.51439"
         style="stroke-width:0.26458332">if</tspan></text>
    <text
       id="text23168"
       y="204.51439"
       x="103.77195"
       style="font-style:normal;font-weight:normal;font-size:10.58333302px;line-height:1.25;font-family:sans-serif;letter-spacing:0px;word-spacing:0px;fill:#000000;fill-opacity:1;stroke:none;stroke-width:0.26458332"
       xml:space="preserve"><tspan
         style="stroke-width:0.26458332"
         y="204.51439"
         x="103.77195"
         id="tspan23166"
         sodipodi:role="line">else if</tspan></text>
    <path
       sodipodi:nodetypes="cccc"
       style="fill:none;stroke:#000000;stroke-width:1.45605898;stroke-linecap:butt;stroke-linejoin:miter;stroke-miterlimit:4;stroke-dasharray:none;stroke-opacity:1;marker-end:url(#marker23202)"
       d="m 120.26552,246.91212 10.42928,8.10925 h 62.54107 l 32.82405,-47.30671"
       id="path23198"
       inkscape:connector-curvature="0" />
    <ellipse
       style="opacity:1;fill:#ffaf00;fill-opacity:1;stroke:#0030ff;stroke-width:0.9741618;stroke-miterlimit:4;stroke-dasharray:none;stroke-dashoffset:0;stroke-opacity:1"
       id="ellipse24500"
       cx="244.57684"
       cy="201.60057"
       rx="14.783545"
       ry="9.0434322" />
    <path
       inkscape:connector-curvature="0"
       id="path24794"
       d="m 245.29862,211.09656 -0.19359,10.49718"
       style="fill:none;stroke:#000000;stroke-width:0.5291667;stroke-linecap:butt;stroke-linejoin:miter;stroke-miterlimit:4;stroke-dasharray:none;stroke-opacity:1;marker-end:url(#marker24800)"
       sodipodi:nodetypes="cc" />
    <rect
       transform="rotate(-45)"
       rx="0"
       ry="0"
       y="329.95676"
       x="-0.89786059"
       height="18.331848"
       width="17.197916"
       id="rect24796"
       style="opacity:1;fill:#aeff00;fill-opacity:1;stroke:#0030ff;stroke-width:0.52916664;stroke-miterlimit:4;stroke-dasharray:none;stroke-dashoffset:0;stroke-opacity:1" />
    <text
       xml:space="preserve"
       style="font-style:normal;font-weight:normal;font-size:3.82896137px;line-height:1.25;font-family:sans-serif;letter-spacing:0px;word-spacing:0px;fill:#000000;fill-opacity:1;stroke:none;stroke-width:0.09572404"
       x="235.88718"
       y="235.47195"
       id="text26510"><tspan
         sodipodi:role="line"
         id="tspan26508"
         x="235.88718"
         y="235.47195"
         style="stroke-width:0.09572404">print &quot;No&quot;</tspan></text>
    <text
       xml:space="preserve"
       style="font-style:normal;font-weight:normal;font-size:10.58333302px;line-height:1.25;font-family:sans-serif;letter-spacing:0px;word-spacing:0px;fill:#000000;fill-opacity:1;stroke:none;stroke-width:0.26458332"
       x="235.09721"
       y="202.64351"
       id="text23172"><tspan
         sodipodi:role="line"
         id="tspan23170"
         x="235.09721"
         y="202.64351"
         style="stroke-width:0.26458332">else</tspan></text>
    <text
       xml:space="preserve"
       style="font-style:normal;font-weight:normal;font-size:10.58333302px;line-height:1.25;font-family:sans-serif;letter-spacing:0px;word-spacing:0px;fill:#000000;fill-opacity:1;stroke:none;stroke-width:0.26458332"
       x="53.672619"
       y="279.6131"
       id="text26778"><tspan
         sodipodi:role="line"
         id="tspan26776"
         x="53.672619"
         y="288.97687"
         style="stroke-width:0.26458332"></tspan></text>
    <flowRoot
       xml:space="preserve"
       id="flowRoot26809"
       style="fill:black;fill-opacity:1;stroke:none;font-family:sans-serif;font-style:normal;font-weight:normal;font-size:40px;line-height:1.25;letter-spacing:0px;word-spacing:0px"><flowRegion
         id="flowRegion26811"><rect
           id="rect26813"
           width="799.16217"
           height="141.26741"
           x="125.12356"
           y="623.66681" /></flowRegion><flowPara
         id="flowPara26815"></flowPara></flowRoot>    <flowRoot
       xml:space="preserve"
       id="flowRoot26817"
       style="font-style:normal;font-weight:normal;font-size:40px;line-height:1.25;font-family:sans-serif;letter-spacing:0px;word-spacing:0px;fill:#0000ff;fill-opacity:1;stroke:none"
       transform="matrix(0.19110361,0,0,0.19110361,37.930496,138.80336)"><flowRegion
         id="flowRegion26819"
         style="fill:#0000ff"><rect
           id="rect26821"
           width="841.42859"
           height="197.14285"
           x="121.42857"
           y="659.21997"
           style="fill:#0000ff" /></flowRegion><flowPara
         id="flowPara26823">cat exp_vino.csv | awk -F',' '{if($2 ~ /Europa/){print $0}else if($2 ~ /Asia/){pais=$4;print pais}else{print &quot;no&quot;}}'</flowPara><flowPara
         id="flowPara26825" /></flowRoot>  </g>
</svg>
