<?xml version="1.0" encoding="UTF-8" standalone="no"?>
<!-- Created with Inkscape (http://www.inkscape.org/) -->

<svg
   xmlns:dc="http://purl.org/dc/elements/1.1/"
   xmlns:cc="http://creativecommons.org/ns#"
   xmlns:rdf="http://www.w3.org/1999/02/22-rdf-syntax-ns#"
   xmlns:svg="http://www.w3.org/2000/svg"
   xmlns="http://www.w3.org/2000/svg"
   xmlns:sodipodi="http://sodipodi.sourceforge.net/DTD/sodipodi-0.dtd"
   xmlns:inkscape="http://www.inkscape.org/namespaces/inkscape"
   width="8.0046473in"
   height="3.2084603in"
   viewBox="0 0 203.31804 81.494892"
   version="1.1"
   id="svg8"
   inkscape:version="0.92.1 r15371"
   sodipodi:docname="variable.svg"
   inkscape:export-filename="/home/david/Proyectos/Presentaciones_CursoProgramacionOOCC/9_string_date/img/variable.png"
   inkscape:export-xdpi="96"
   inkscape:export-ydpi="96">
  <defs
     id="defs2">
    <marker
       inkscape:stockid="Arrow1Mend"
       orient="auto"
       refY="0"
       refX="0"
       id="Arrow1Mend"
       style="overflow:visible"
       inkscape:isstock="true">
      <path
         id="path877"
         d="M 0,0 5,-5 -12.5,0 5,5 Z"
         style="fill:#000000;fill-opacity:1;fill-rule:evenodd;stroke:#000000;stroke-width:1.00000003pt;stroke-opacity:1"
         transform="matrix(-0.4,0,0,-0.4,-4,0)"
         inkscape:connector-curvature="0" />
    </marker>
  </defs>
  <sodipodi:namedview
     id="base"
     pagecolor="#ffffff"
     bordercolor="#666666"
     borderopacity="1.0"
     inkscape:pageopacity="0.0"
     inkscape:pageshadow="2"
     inkscape:zoom="0.48820751"
     inkscape:cx="387.43092"
     inkscape:cy="70.832341"
     inkscape:document-units="mm"
     inkscape:current-layer="layer1"
     showgrid="false"
     units="in"
     height="7.5in"
     fit-margin-top="0"
     fit-margin-left="0"
     fit-margin-right="0"
     fit-margin-bottom="0"
     inkscape:window-width="1366"
     inkscape:window-height="709"
     inkscape:window-x="0"
     inkscape:window-y="0"
     inkscape:window-maximized="1" />
  <metadata
     id="metadata5">
    <rdf:RDF>
      <cc:Work
         rdf:about="">
        <dc:format>image/svg+xml</dc:format>
        <dc:type
           rdf:resource="http://purl.org/dc/dcmitype/StillImage" />
        <dc:title></dc:title>
      </cc:Work>
    </rdf:RDF>
  </metadata>
  <g
     inkscape:label="Capa 1"
     inkscape:groupmode="layer"
     id="layer1"
     transform="translate(-39.865024,-129.97853)">
    <flowRoot
       xml:space="preserve"
       id="flowRoot26"
       style="font-style:normal;font-weight:normal;font-size:40px;line-height:1.25;font-family:sans-serif;letter-spacing:0px;word-spacing:0px;fill:#000000;fill-opacity:1;stroke:none"
       transform="matrix(0.14878724,0,0,0.14878724,72.088738,137.86878)"><flowRegion
         id="flowRegion28"><rect
           id="rect30"
           width="1108.1354"
           height="69.642525"
           x="61.44928"
           y="281.39127" /></flowRegion><flowPara
         id="flowPara32"><flowSpan
   style="fill:#ff0000"
   id="flowSpan34">MENSAJE</flowSpan>=&quot;<flowSpan
   style="fill:#0000ff"
   id="flowSpan36">No tocar mientras la luz está encendida</flowSpan>&quot;</flowPara></flowRoot>    <path
       style="fill:none;stroke:#000000;stroke-width:0.21477656px;stroke-linecap:butt;stroke-linejoin:miter;stroke-opacity:1"
       d="m 78.113013,185.76534 v 3.7394 h 14.187704 l 1.53975,1.53975 0.73646,-1.27558 h 14.221123 v -4.11354"
       id="path38"
       inkscape:connector-curvature="0" />
    <text
       xml:space="preserve"
       style="font-style:normal;font-weight:normal;font-size:8.59106255px;line-height:1.25;font-family:sans-serif;letter-spacing:0px;word-spacing:0px;fill:#000000;fill-opacity:1;stroke:none;stroke-width:0.21477656"
       x="80.31266"
       y="200.61295"
       id="text42"><tspan
         sodipodi:role="line"
         id="tspan40"
         x="80.31266"
         y="200.61295"
         style="stroke-width:0.21477656">esto es el nombre de </tspan><tspan
         sodipodi:role="line"
         x="80.31266"
         y="211.35178"
         style="stroke-width:0.21477656"
         id="tspan44">una variable</tspan></text>
    <text
       id="text50"
       y="154.42041"
       x="121.22604"
       style="font-style:normal;font-weight:normal;font-size:8.59106255px;line-height:1.25;font-family:sans-serif;letter-spacing:0px;word-spacing:0px;fill:#000000;fill-opacity:1;stroke:none;stroke-width:0.21477656"
       xml:space="preserve"><tspan
         id="tspan48"
         style="stroke-width:0.21477656"
         y="154.42041"
         x="121.22604"
         sodipodi:role="line">esto es una cadena de texto</tspan><tspan
         style="stroke-width:0.21477656"
         y="165.15924"
         x="121.22604"
         sodipodi:role="line"
         id="tspan56">o string o un *valor*</tspan></text>
    <path
       style="fill:none;stroke:#000000;stroke-width:0.21477656px;stroke-linecap:butt;stroke-linejoin:miter;stroke-opacity:1"
       d="m 113.96722,178.83647 v -5.27915 h 51.25171 l 1.92363,-3.33182 2.00665,3.4756 h 64.69862 l 1.95661,3.38897"
       id="path52"
       inkscape:connector-curvature="0" />
    <path
       style="fill:none;stroke:#000000;stroke-width:0.21511479;stroke-linecap:butt;stroke-linejoin:miter;stroke-miterlimit:4;stroke-dasharray:none;stroke-opacity:1;marker-end:url(#Arrow1Mend)"
       d="m 84.272017,161.67924 23.334343,6.25242 3.06139,12.2246"
       id="path58"
       inkscape:connector-curvature="0"
       sodipodi:nodetypes="ccc" />
    <flowRoot
       xml:space="preserve"
       id="flowRoot1150"
       style="font-style:normal;font-weight:normal;font-size:40px;line-height:1.25;font-family:sans-serif;letter-spacing:0px;word-spacing:0px;fill:#000000;fill-opacity:1;stroke:none"
       transform="matrix(0.21477657,0,0,0.21477657,34.780021,104.76242)"><flowRegion
         id="flowRegion1152"><rect
           id="rect1154"
           width="243.74881"
           height="184.34784"
           x="21.507248"
           y="112.40575" /></flowRegion><flowPara
         id="flowPara1156">Esto es el símbolo de asignación</flowPara></flowRoot>  </g>
</svg>
