<?xml version="1.0" encoding="UTF-8" standalone="no"?>
<!-- Created with Inkscape (http://www.inkscape.org/) -->

<svg
   xmlns:dc="http://purl.org/dc/elements/1.1/"
   xmlns:cc="http://creativecommons.org/ns#"
   xmlns:rdf="http://www.w3.org/1999/02/22-rdf-syntax-ns#"
   xmlns:svg="http://www.w3.org/2000/svg"
   xmlns="http://www.w3.org/2000/svg"
   xmlns:sodipodi="http://sodipodi.sourceforge.net/DTD/sodipodi-0.dtd"
   xmlns:inkscape="http://www.inkscape.org/namespaces/inkscape"
   width="190.23674mm"
   height="181.746mm"
   viewBox="0 0 190.23674 181.746"
   version="1.1"
   id="svg27043"
   inkscape:version="0.92.1 r15371"
   sodipodi:docname="estructura_programa_awk.svg">
  <defs
     id="defs27037" />
  <sodipodi:namedview
     id="base"
     pagecolor="#ffffff"
     bordercolor="#666666"
     borderopacity="1.0"
     inkscape:pageopacity="0.0"
     inkscape:pageshadow="2"
     inkscape:zoom="0.35"
     inkscape:cx="649.32931"
     inkscape:cy="564.39068"
     inkscape:document-units="mm"
     inkscape:current-layer="layer1"
     showgrid="false"
     fit-margin-top="0"
     fit-margin-left="0"
     fit-margin-right="0"
     fit-margin-bottom="0"
     inkscape:window-width="1366"
     inkscape:window-height="709"
     inkscape:window-x="0"
     inkscape:window-y="0"
     inkscape:window-maximized="1" />
  <metadata
     id="metadata27040">
    <rdf:RDF>
      <cc:Work
         rdf:about="">
        <dc:format>image/svg+xml</dc:format>
        <dc:type
           rdf:resource="http://purl.org/dc/dcmitype/StillImage" />
        <dc:title></dc:title>
      </cc:Work>
    </rdf:RDF>
  </metadata>
  <g
     inkscape:label="Capa 1"
     inkscape:groupmode="layer"
     id="layer1"
     transform="translate(-14.854464,-99.971057)">
    <text
       xml:space="preserve"
       style="font-style:normal;font-weight:normal;font-size:10.58333302px;line-height:1.25;font-family:sans-serif;letter-spacing:0px;word-spacing:0px;fill:#000000;fill-opacity:1;stroke:none;stroke-width:0.26458332"
       x="65.011902"
       y="108.01191"
       id="text27047"><tspan
         sodipodi:role="line"
         id="tspan27045"
         x="65.011902"
         y="108.01191"
         style="stroke-width:0.26458332">BEGIN{</tspan><tspan
         sodipodi:role="line"
         x="65.011902"
         y="121.24107"
         style="fill:#0000ff;stroke-width:0.26458332"
         id="tspan27049">&lt;inicializar variables&gt;</tspan><tspan
         sodipodi:role="line"
         x="65.011902"
         y="134.47025"
         style="fill:#0000ff;stroke-width:0.26458332"
         id="tspan27053">&lt;acciones al inicio&gt;</tspan><tspan
         sodipodi:role="line"
         x="65.011902"
         y="147.6994"
         style="stroke-width:0.26458332"
         id="tspan27051">}</tspan><tspan
         sodipodi:role="line"
         x="65.011902"
         y="160.92857"
         style="stroke-width:0.26458332"
         id="tspan27055">{</tspan><tspan
         sodipodi:role="line"
         x="65.011902"
         y="174.15775"
         style="fill:#0000ff;stroke-width:0.26458332"
         id="tspan27059">&lt;procesar datos&gt;,</tspan><tspan
         sodipodi:role="line"
         x="65.011902"
         y="187.3869"
         style="fill:#0000ff;stroke-width:0.26458332"
         id="tspan27061">&lt;cargar arrays&gt;,</tspan><tspan
         sodipodi:role="line"
         x="65.011902"
         y="200.61607"
         style="fill:#0000ff;stroke-width:0.26458332"
         id="tspan27063">&lt;mprimir información&gt;</tspan><tspan
         sodipodi:role="line"
         x="65.011902"
         y="213.84525"
         style="stroke-width:0.26458332"
         id="tspan27057">}</tspan><tspan
         sodipodi:role="line"
         x="65.011902"
         y="227.0744"
         style="stroke-width:0.26458332"
         id="tspan27067">END{</tspan><tspan
         sodipodi:role="line"
         x="65.011902"
         y="240.30357"
         style="fill:#0000ff;stroke-width:0.26458332"
         id="tspan27071">&lt;procesar listas o arrays&gt;</tspan><tspan
         sodipodi:role="line"
         x="65.011902"
         y="253.53275"
         style="fill:#0000ff;stroke-width:0.26458332"
         id="tspan27073">&lt;finalizar acciones&gt;</tspan><tspan
         sodipodi:role="line"
         x="65.011902"
         y="266.7619"
         style="fill:#0000ff;stroke-width:0.26458332"
         id="tspan27075">&lt;imprimir cierre&gt;</tspan><tspan
         sodipodi:role="line"
         x="65.011902"
         y="279.99106"
         style="stroke-width:0.26458332"
         id="tspan27069">}</tspan><tspan
         sodipodi:role="line"
         x="65.011902"
         y="293.22025"
         style="stroke-width:0.26458332"
         id="tspan27065" /></text>
    <rect
       style="opacity:1;fill:none;fill-opacity:1;stroke:#000829;stroke-width:0.52916664;stroke-miterlimit:4;stroke-dasharray:none;stroke-dashoffset:0;stroke-opacity:1"
       id="rect27077"
       width="40.065475"
       height="40.065475"
       x="15.119047"
       y="103.47619" />
    <rect
       y="160.2234"
       x="15.169839"
       height="57.069141"
       width="39.963894"
       id="rect27622"
       style="opacity:1;fill:none;fill-opacity:1;stroke:#000829;stroke-width:0.63074923;stroke-miterlimit:4;stroke-dasharray:none;stroke-dashoffset:0;stroke-opacity:1" />
    <rect
       style="opacity:1;fill:none;fill-opacity:1;stroke:#000829;stroke-width:0.55681604;stroke-miterlimit:4;stroke-dasharray:none;stroke-dashoffset:0;stroke-opacity:1"
       id="rect27624"
       width="39.963894"
       height="44.474529"
       x="15.169839"
       y="229.88716" />
    <text
       xml:space="preserve"
       style="font-style:normal;font-weight:normal;font-size:10.58333302px;line-height:1.25;font-family:sans-serif;letter-spacing:0px;word-spacing:0px;fill:#000000;fill-opacity:1;stroke:none;stroke-width:0.26458332"
       x="21.544641"
       y="128.8006"
       id="text27628"><tspan
         sodipodi:role="line"
         id="tspan27626"
         x="21.544641"
         y="128.8006"
         style="stroke-width:0.26458332">inicio</tspan></text>
    <text
       id="text27632"
       y="128.8006"
       x="21.544641"
       style="font-style:normal;font-weight:normal;font-size:10.58333302px;line-height:1.25;font-family:sans-serif;letter-spacing:0px;word-spacing:0px;fill:#000000;fill-opacity:1;stroke:none;stroke-width:0.26458332"
       xml:space="preserve"><tspan
         style="stroke-width:0.26458332"
         y="128.8006"
         x="21.544641"
         id="tspan27630"
         sodipodi:role="line">inicio</tspan></text>
    <text
       xml:space="preserve"
       style="font-style:normal;font-weight:normal;font-size:10.58333302px;line-height:1.25;font-family:sans-serif;letter-spacing:0px;word-spacing:0px;fill:#000000;fill-opacity:1;stroke:none;stroke-width:0.26458332"
       x="18.898808"
       y="195.70238"
       id="text27636"><tspan
         sodipodi:role="line"
         id="tspan27634"
         x="18.898808"
         y="195.70238"
         style="stroke-width:0.26458332">centro</tspan></text>
    <text
       id="text27640"
       y="255.8006"
       x="21.544641"
       style="font-style:normal;font-weight:normal;font-size:10.58333302px;line-height:1.25;font-family:sans-serif;letter-spacing:0px;word-spacing:0px;fill:#000000;fill-opacity:1;stroke:none;stroke-width:0.26458332"
       xml:space="preserve"><tspan
         style="stroke-width:0.26458332"
         y="255.8006"
         x="21.544641"
         id="tspan27638"
         sodipodi:role="line">final</tspan></text>
  </g>
</svg>
