<?xml version="1.0" encoding="UTF-8" standalone="no"?>
<!-- Created with Inkscape (http://www.inkscape.org/) -->

<svg
   xmlns:dc="http://purl.org/dc/elements/1.1/"
   xmlns:cc="http://creativecommons.org/ns#"
   xmlns:rdf="http://www.w3.org/1999/02/22-rdf-syntax-ns#"
   xmlns:svg="http://www.w3.org/2000/svg"
   xmlns="http://www.w3.org/2000/svg"
   xmlns:sodipodi="http://sodipodi.sourceforge.net/DTD/sodipodi-0.dtd"
   xmlns:inkscape="http://www.inkscape.org/namespaces/inkscape"
   width="197.32617mm"
   height="89.261902mm"
   viewBox="0 0 197.32617 89.261902"
   version="1.1"
   id="svg8"
   inkscape:version="0.92.1 r15371"
   sodipodi:docname="intervalos.svg"
   inkscape:export-filename="/home/david/Proyectos/Presentaciones_CursoProgramacionOOCC/18_prog_bash_01/img/intervalos.png"
   inkscape:export-xdpi="95"
   inkscape:export-ydpi="95">
  <defs
     id="defs2">
    <marker
       inkscape:isstock="true"
       style="overflow:visible"
       id="marker1539"
       refX="0"
       refY="0"
       orient="auto"
       inkscape:stockid="Arrow1Mend">
      <path
         transform="matrix(-0.4,0,0,-0.4,-4,0)"
         style="fill:#000000;fill-opacity:1;fill-rule:evenodd;stroke:#000000;stroke-width:1.00000003pt;stroke-opacity:1"
         d="M 0,0 5,-5 -12.5,0 5,5 Z"
         id="path1537"
         inkscape:connector-curvature="0" />
    </marker>
    <marker
       inkscape:isstock="true"
       style="overflow:visible"
       id="marker1499"
       refX="0"
       refY="0"
       orient="auto"
       inkscape:stockid="Arrow1Mstart">
      <path
         transform="matrix(0.4,0,0,0.4,4,0)"
         style="fill:#000000;fill-opacity:1;fill-rule:evenodd;stroke:#000000;stroke-width:1.00000003pt;stroke-opacity:1"
         d="M 0,0 5,-5 -12.5,0 5,5 Z"
         id="path1497"
         inkscape:connector-curvature="0" />
    </marker>
    <marker
       inkscape:isstock="true"
       style="overflow:visible"
       id="marker1219"
       refX="0"
       refY="0"
       orient="auto"
       inkscape:stockid="Arrow1Mend">
      <path
         transform="matrix(-0.4,0,0,-0.4,-4,0)"
         style="fill:#000000;fill-opacity:1;fill-rule:evenodd;stroke:#000000;stroke-width:1.00000003pt;stroke-opacity:1"
         d="M 0,0 5,-5 -12.5,0 5,5 Z"
         id="path1217"
         inkscape:connector-curvature="0" />
    </marker>
    <marker
       inkscape:isstock="true"
       style="overflow:visible"
       id="marker1191"
       refX="0"
       refY="0"
       orient="auto"
       inkscape:stockid="Arrow1Mstart">
      <path
         transform="matrix(0.4,0,0,0.4,4,0)"
         style="fill:#000000;fill-opacity:1;fill-rule:evenodd;stroke:#000000;stroke-width:1.00000003pt;stroke-opacity:1"
         d="M 0,0 5,-5 -12.5,0 5,5 Z"
         id="path1189"
         inkscape:connector-curvature="0" />
    </marker>
    <marker
       inkscape:stockid="Arrow1Mend"
       orient="auto"
       refY="0"
       refX="0"
       id="Arrow1Mend"
       style="overflow:visible"
       inkscape:isstock="true"
       inkscape:collect="always">
      <path
         id="path826"
         d="M 0,0 5,-5 -12.5,0 5,5 Z"
         style="fill:#000000;fill-opacity:1;fill-rule:evenodd;stroke:#000000;stroke-width:1.00000003pt;stroke-opacity:1"
         transform="matrix(-0.4,0,0,-0.4,-4,0)"
         inkscape:connector-curvature="0" />
    </marker>
    <marker
       inkscape:stockid="Arrow1Mstart"
       orient="auto"
       refY="0"
       refX="0"
       id="Arrow1Mstart"
       style="overflow:visible"
       inkscape:isstock="true"
       inkscape:collect="always">
      <path
         id="path823"
         d="M 0,0 5,-5 -12.5,0 5,5 Z"
         style="fill:#000000;fill-opacity:1;fill-rule:evenodd;stroke:#000000;stroke-width:1.00000003pt;stroke-opacity:1"
         transform="matrix(0.4,0,0,0.4,4,0)"
         inkscape:connector-curvature="0" />
    </marker>
  </defs>
  <sodipodi:namedview
     id="base"
     pagecolor="#ffffff"
     bordercolor="#666666"
     borderopacity="1.0"
     inkscape:pageopacity="0.0"
     inkscape:pageshadow="2"
     inkscape:zoom="0.66950758"
     inkscape:cx="-82.940041"
     inkscape:cy="176.47915"
     inkscape:document-units="mm"
     inkscape:current-layer="layer1"
     showgrid="false"
     fit-margin-top="0"
     fit-margin-left="0"
     fit-margin-right="0"
     fit-margin-bottom="0"
     inkscape:window-width="1366"
     inkscape:window-height="709"
     inkscape:window-x="0"
     inkscape:window-y="0"
     inkscape:window-maximized="1" />
  <metadata
     id="metadata5">
    <rdf:RDF>
      <cc:Work
         rdf:about="">
        <dc:format>image/svg+xml</dc:format>
        <dc:type
           rdf:resource="http://purl.org/dc/dcmitype/StillImage" />
        <dc:title></dc:title>
      </cc:Work>
    </rdf:RDF>
  </metadata>
  <g
     inkscape:label="Capa 1"
     inkscape:groupmode="layer"
     id="layer1"
     transform="translate(-6.0544106,-98.757373)">
    <g
       id="g2335">
      <text
         xml:space="preserve"
         style="font-style:normal;font-weight:normal;font-size:10.58333302px;line-height:1.25;font-family:sans-serif;letter-spacing:0px;word-spacing:0px;fill:#000000;fill-opacity:1;stroke:none;stroke-width:0.26458332"
         x="20.549929"
         y="187.86942"
         id="text2282"><tspan
           sodipodi:role="line"
           id="tspan2280"
           x="20.549929"
           y="187.86942"
           style="fill:#000000;fill-opacity:1;stroke-width:0.26458332">&lt;=0</tspan></text>
      <text
         id="text2286"
         y="172.06177"
         x="61.45219"
         style="font-style:normal;font-weight:normal;font-size:10.58333302px;line-height:1.25;font-family:sans-serif;letter-spacing:0px;word-spacing:0px;fill:#000000;fill-opacity:1;stroke:none;stroke-width:0.26458332"
         xml:space="preserve"><tspan
           style="fill:#000000;fill-opacity:1;stroke-width:0.26458332"
           y="172.06177"
           x="61.45219"
           id="tspan2284"
           sodipodi:role="line">0&lt;t&lt;=15</tspan></text>
      <text
         xml:space="preserve"
         style="font-style:normal;font-weight:normal;font-size:10.58333302px;line-height:1.25;font-family:sans-serif;letter-spacing:0px;word-spacing:0px;fill:#000000;fill-opacity:1;stroke:none;stroke-width:0.26458332"
         x="167.36078"
         y="152.22137"
         id="text2290"><tspan
           sodipodi:role="line"
           id="tspan2288"
           x="167.36078"
           y="152.22137"
           style="fill:#000000;fill-opacity:1;stroke-width:0.26458332">30&lt;t</tspan></text>
      <text
         id="text2294"
         y="131.07866"
         x="110.84847"
         style="font-style:normal;font-weight:normal;font-size:10.58333302px;line-height:1.25;font-family:sans-serif;letter-spacing:0px;word-spacing:0px;fill:#000000;fill-opacity:1;stroke:none;stroke-width:0.26458332"
         xml:space="preserve"><tspan
           style="fill:#000000;fill-opacity:1;stroke-width:0.26458332"
           y="131.07866"
           x="110.84847"
           id="tspan2292"
           sodipodi:role="line">15&lt;t&lt;=30</tspan></text>
      <path
         inkscape:connector-curvature="0"
         id="path10"
         d="M 11.065346,138.26883 H 202.33776"
         style="fill:none;stroke:#000000;stroke-width:0.5291667;stroke-linecap:butt;stroke-linejoin:miter;stroke-miterlimit:4;stroke-dasharray:none;stroke-opacity:1;marker-start:url(#Arrow1Mstart);marker-end:url(#Arrow1Mend)" />
      <circle
         style="opacity:1;fill:none;fill-opacity:1;stroke:#0835e3;stroke-width:2.11666656;stroke-miterlimit:4;stroke-dasharray:none;stroke-dashoffset:0;stroke-opacity:1"
         id="circle1169"
         cx="167.92038"
         cy="138.26883"
         r="4.0519118" />
      <path
         style="fill:none;stroke:#000000;stroke-width:0.5291667;stroke-linecap:butt;stroke-linejoin:miter;stroke-miterlimit:4;stroke-dasharray:none;stroke-opacity:1;marker-start:url(#marker1191);marker-end:url(#marker1219)"
         d="M 11.065346,118.42845 H 202.33776"
         id="path1183"
         inkscape:connector-curvature="0" />
      <circle
         style="opacity:1;fill:#ff0000;fill-opacity:1;stroke:none;stroke-width:0.52916664;stroke-miterlimit:4;stroke-dasharray:none;stroke-dashoffset:0;stroke-opacity:1"
         id="circle1185"
         cx="167.92038"
         cy="118.42844"
         r="4.0519118" />
      <circle
         r="4.0519118"
         cy="118.42844"
         cx="112.08952"
         id="circle1187"
         style="opacity:1;fill:none;fill-opacity:1;stroke:#0835e3;stroke-width:2.11666656;stroke-miterlimit:4;stroke-dasharray:none;stroke-dashoffset:0;stroke-opacity:1" />
      <path
         style="fill:none;stroke:#000000;stroke-width:0.5291667;stroke-linecap:butt;stroke-linejoin:miter;stroke-miterlimit:4;stroke-dasharray:none;stroke-opacity:1;marker-start:url(#marker1499);marker-end:url(#marker1539)"
         d="M 11.065346,158.10923 H 202.33776"
         id="path1491"
         inkscape:connector-curvature="0" />
      <circle
         style="opacity:1;fill:#ff0000;fill-opacity:1;stroke:none;stroke-width:0.52916664;stroke-miterlimit:4;stroke-dasharray:none;stroke-dashoffset:0;stroke-opacity:1"
         id="circle1493"
         cx="112.08952"
         cy="158.10924"
         r="4.0519118" />
      <circle
         r="4.0519118"
         cy="158.10924"
         cx="61.231033"
         id="circle1495"
         style="opacity:1;fill:none;fill-opacity:1;stroke:#0835e3;stroke-width:2.11666656;stroke-miterlimit:4;stroke-dasharray:none;stroke-dashoffset:0;stroke-opacity:1" />
      <path
         inkscape:connector-curvature="0"
         id="path1934"
         d="M 11.065346,177.94964 H 202.33776"
         style="fill:none;stroke:#000000;stroke-width:0.5291667;stroke-linecap:butt;stroke-linejoin:miter;stroke-miterlimit:4;stroke-dasharray:none;stroke-opacity:1;marker-start:url(#marker1191);marker-end:url(#marker1219)" />
      <circle
         r="4.0519118"
         cy="177.94963"
         cx="61.231033"
         id="circle1936"
         style="opacity:1;fill:#ff0000;fill-opacity:1;stroke:none;stroke-width:0.52916664;stroke-miterlimit:4;stroke-dasharray:none;stroke-dashoffset:0;stroke-opacity:1" />
      <path
         inkscape:connector-curvature="0"
         id="path2230"
         d="m 61.231033,109.77372 v 75.16995"
         style="fill:none;stroke:#000000;stroke-width:0.26499999;stroke-linecap:butt;stroke-linejoin:miter;stroke-miterlimit:4;stroke-dasharray:0.265, 1.06;stroke-dashoffset:0;stroke-opacity:1" />
      <path
         style="fill:none;stroke:#000000;stroke-width:0.26499999;stroke-linecap:butt;stroke-linejoin:miter;stroke-miterlimit:4;stroke-dasharray:0.265, 1.06;stroke-dashoffset:0;stroke-opacity:1"
         d="m 112.08952,109.77372 v 75.16995"
         id="path2234"
         inkscape:connector-curvature="0" />
      <path
         inkscape:connector-curvature="0"
         id="path2236"
         d="m 167.92038,109.77372 v 75.16995"
         style="fill:none;stroke:#000000;stroke-width:0.26499999;stroke-linecap:butt;stroke-linejoin:miter;stroke-miterlimit:4;stroke-dasharray:0.265, 1.06;stroke-dashoffset:0;stroke-opacity:1" />
      <text
         id="text2240"
         y="106.61219"
         x="58.069508"
         style="font-style:normal;font-weight:normal;font-size:10.58333302px;line-height:1.25;font-family:sans-serif;letter-spacing:0px;word-spacing:0px;fill:#000000;fill-opacity:1;stroke:none;stroke-width:0.26458332"
         xml:space="preserve"><tspan
           style="stroke-width:0.26458332"
           y="106.61219"
           x="58.069508"
           id="tspan2238"
           sodipodi:role="line">0</tspan></text>
      <text
         xml:space="preserve"
         style="font-style:normal;font-weight:normal;font-size:10.58333302px;line-height:1.25;font-family:sans-serif;letter-spacing:0px;word-spacing:0px;fill:#000000;fill-opacity:1;stroke:none;stroke-width:0.26458332"
         x="105.69002"
         y="106.61219"
         id="text2244"><tspan
           sodipodi:role="line"
           id="tspan2242"
           x="105.69002"
           y="106.61219"
           style="stroke-width:0.26458332">15</tspan></text>
      <text
         id="text2248"
         y="106.61219"
         x="161.21434"
         style="font-style:normal;font-weight:normal;font-size:10.58333302px;line-height:1.25;font-family:sans-serif;letter-spacing:0px;word-spacing:0px;fill:#000000;fill-opacity:1;stroke:none;stroke-width:0.26458332"
         xml:space="preserve"><tspan
           style="stroke-width:0.26458332"
           y="106.61219"
           x="161.21434"
           id="tspan2246"
           sodipodi:role="line">30</tspan></text>
      <path
         inkscape:connector-curvature="0"
         id="rect2250"
         d="m 11.643733,168.10232 -2.794661,1.61334 -2.7946614,1.61386 2.7946614,1.61333 2.794661,1.61334 v -1.44849 h 49.2156 v -3.55689 h -49.2156 z"
         style="opacity:1;fill:#51d900;fill-opacity:1;stroke:none;stroke-width:0.26499999;stroke-miterlimit:4;stroke-dasharray:0.265, 1.05999998;stroke-dashoffset:0;stroke-opacity:1" />
      <path
         inkscape:connector-curvature="0"
         id="path2255"
         d="m 65.928412,147.86649 -2.342084,1.61334 -2.342083,1.61385 2.342083,1.61334 2.342084,1.61334 v -1.44849 h 41.245438 v 1.44849 l 2.34208,-1.61334 2.34208,-1.61334 -2.34208,-1.61385 -2.34208,-1.61334 v 1.44849 H 65.928412 Z"
         style="opacity:1;fill:#51d900;fill-opacity:1;stroke:none;stroke-width:0.24259531;stroke-miterlimit:4;stroke-dasharray:0.24259533, 0.97038128;stroke-dashoffset:0;stroke-opacity:1" />
      <path
         style="opacity:1;fill:#51d900;fill-opacity:1;stroke:none;stroke-width:0.25468346;stroke-miterlimit:4;stroke-dasharray:0.25468349, 1.0187339;stroke-dashoffset:0;stroke-opacity:1"
         d="m 117.40505,107.5929 -2.5813,1.61334 -2.5813,1.61385 2.5813,1.61334 2.5813,1.61334 v -1.44849 h 45.45824 v 1.44849 l 2.5813,-1.61334 2.5813,-1.61334 -2.5813,-1.61385 -2.5813,-1.61334 v 1.44849 h -45.45824 z"
         id="path2260"
         inkscape:connector-curvature="0" />
      <path
         inkscape:connector-curvature="0"
         style="opacity:1;fill:#51d900;fill-opacity:1;stroke:none;stroke-width:0.21339826;stroke-miterlimit:4;stroke-dasharray:0.21339828, 0.85359309;stroke-dashoffset:0;stroke-opacity:1"
         d="m 199.667,125.75689 1.81226,1.61334 1.81225,1.61386 -1.81225,1.61334 -1.81226,1.61333 v -1.44849 h -31.91485 v -3.55688 H 199.667 Z"
         id="path2262" />
      <text
         id="text2266"
         y="187.72969"
         x="20.549929"
         style="font-style:normal;font-weight:normal;font-size:10.58333302px;line-height:1.25;font-family:sans-serif;letter-spacing:0px;word-spacing:0px;fill:#ec6800;fill-opacity:1;stroke:none;stroke-width:0.26458332"
         xml:space="preserve"><tspan
           style="fill:#ec6800;fill-opacity:1;stroke-width:0.26458332"
           y="187.72969"
           x="20.549929"
           id="tspan2264"
           sodipodi:role="line">&lt;=0</tspan></text>
      <text
         xml:space="preserve"
         style="font-style:normal;font-weight:normal;font-size:10.58333302px;line-height:1.25;font-family:sans-serif;letter-spacing:0px;word-spacing:0px;fill:#ec6800;fill-opacity:1;stroke:none;stroke-width:0.26458332"
         x="61.45219"
         y="171.92204"
         id="text2270"><tspan
           sodipodi:role="line"
           id="tspan2268"
           x="61.45219"
           y="171.92204"
           style="fill:#ec6800;fill-opacity:1;stroke-width:0.26458332">0&lt;t&lt;=15</tspan></text>
      <text
         id="text2274"
         y="152.08165"
         x="167.36078"
         style="font-style:normal;font-weight:normal;font-size:10.58333302px;line-height:1.25;font-family:sans-serif;letter-spacing:0px;word-spacing:0px;fill:#ec6800;fill-opacity:1;stroke:none;stroke-width:0.26458332"
         xml:space="preserve"><tspan
           style="fill:#ec6800;fill-opacity:1;stroke-width:0.26458332"
           y="152.08165"
           x="167.36078"
           id="tspan2272"
           sodipodi:role="line">30&lt;t</tspan></text>
      <text
         xml:space="preserve"
         style="font-style:normal;font-weight:normal;font-size:10.58333302px;line-height:1.25;font-family:sans-serif;letter-spacing:0px;word-spacing:0px;fill:#ec6800;fill-opacity:1;stroke:none;stroke-width:0.26458332"
         x="110.84847"
         y="130.93893"
         id="text2278"><tspan
           sodipodi:role="line"
           id="tspan2276"
           x="110.84847"
           y="130.93893"
           style="fill:#ec6800;fill-opacity:1;stroke-width:0.26458332">15&lt;t&lt;=30</tspan></text>
    </g>
  </g>
</svg>
