id;nombre;longitud;latitud;comuna;direccion
1;Biblioteca Municipal;-70.6167439;-33.4270208;Santiago;Avenida Providencia Nº 1590
2;Café Literario Parque Balmaceda;-70.6273479;-33.4342129;Santiago;Avda. Providencia Nº 410
3;Café Literario Santa Isabel;-70.6520197;-33.4523072;Santiago;Santa Isabel Nº 1240
5;Centro Comunitario Bellavista;-70.634548;-33.4333862;Santiago;Avda. Constitución Nº 85
7;Biblioteca al Aire Libro Plaza Uruguay;-70.592643;-33.436853;Santiago;Guillermo Acuña esquina Aenida El Bosque (Plaza Uruguay)
8;Biblioteca al Aire Libro Parque de las Escultura;-70.5720204;-33.4769121;Santiago;Santa María Nº 2201
18;Biblioteca Pública Nº 36;-70.9251708;-33.6622579;Talagante;Balmaceda
46;Biblioteca Pública Nº 189;-72.95652230000002;-41.4808394;El Monte;Avda. Independencia Nº 80
50;Biblioteca Pública Nº 294;-70.631511;-33.5852151;La Pintana;Aníbal Pinto Nº 12952
58;Biblioteca Pública Nº 357;-70.9620314;-33.7394603;Isla de Maipo;Calle Las Guías Nº 5049
62;Biblioteca Pública Nº 380;-70.76841929999999;-33.4879939;Maipú;Calle Victoria de Abril Nº 354
81;Biblioteca Pública Nº 403;-70.28359999999999;-18.454588;Arica;Samo Alto N° 3347 (Los Industriales)
132;Biblioteca Pública;-71.3252091;-29.9718907;Coquimbo;Santiago Amengual Nº 390
142;Biblioteca Pública Nº 41;-70.92933839999999;-32.2516341;Petorca;Manuel Montt Nº 845
143;Biblioteca Pública Nº 43;-71.2312831;-32.4506843;La Ligua;Papudo con Polanco s/n
147;Biblioteca Pública Nº 68;-70.689182;-33.4298457;San Antonio;Juan Luis Sanfuentes Nº 2365
148;Biblioteca Pública Nº 73;-71.18529;-32.995384;Olmué;Prat Nº 5002
149;Biblioteca Pública Nº 83;-71.2481847;-32.8808967;Quillota;Calle San Martín 336
151;Biblioteca Pública Nº 85;-71.2260653;-32.8255473;La Cruz;Simpson 15
152;Biblioteca Pública Nº 86;-70.7306397;-32.7592783;San Felipe;Calle Santiago Bueras Nº 895
153;Biblioteca Pública Nº 87;-70.9552543;-32.8395903;Llaillay;Almirante Latorre Nº 19
156;Biblioteca Pública Nº 90;-71.3561471;-33.042507;Villa Alemana;Baquedano Nº 618
157;Biblioteca Pública Nº 91;-71.26509;-32.99038;Limache;Avda. Urmeneta Nº 920
159;Biblioteca Pública Nº 97;-71.66580549999999;-33.4562205;El Tabo;Calle Poeta Jonás Nº 85
160;Biblioteca Pública Nº 125;-71.5882489;-33.0636262;Santa María;Bernardo O'Higgins Nº 823
161;Biblioteca Pública Nº 126;-70.7288758;-32.7558251;San Felipe;Avda. Riquelme Nº 60
163;Biblioteca Pública Nº 133;-71.5662808;-33.1116097;Valparaíso;Calle Octava N° 724
164;Biblioteca Pública Nº 136;-71.50116;-33.00925;Viña del Mar;Las Azucenas N° 21
168;Biblioteca Pública Nº 186;-71.63636079999999;-33.0299967;Valparaíso;Avda. Playa Ancha Nº 201
171;Biblioteca Pública Nº 233;-70.8562328;-34.3970567;Rinconada;Avda. San Martín Nº 988
173;Biblioteca Pública Nº 235;-71.5204439;-32.9283032;Concón;Tierra del Fuego Nº 890
174;Biblioteca Pública Nº 237;-71.41615709999999;-32.7264198;Puchuncaví;Avda. Bernardo O'Higgins Nº 70
175;Biblioteca Pública Nº 238;-71.5300472;-32.7858274;Quintero;Arturo Prat N° 1960
177;Biblioteca Pública Nº 295;-71.14850799999999;-32.8044636;Hijuelas;Cuartel Nº 75
178;Biblioteca Pública Nº 298;-71.22964429999999;-32.4589849;La Ligua;Pasaje 8 Poniente Nº 18
179;Biblioteca Pública Nº 304;-70.7166117;-32.6251893;Putaendo;San Martín Nº 654
181;Biblioteca Pública Nº 350;-70.6888024;-33.4484061;Nogales;Los Cerezos Nº 2699
184;Biblioteca Pública Nº 375;-71.6641338;-33.3593718;Algarrobo;Avda. Carlos Alesandri N° 1633
185;Biblioteca Pública Nº 407;-70.8333;-32.7670303;Panquehue;La Chilca s/n
186;Biblioteca Pública Nº 34;-70.74168660000001;-34.1753181;Rancagua;Avda. Cachapoal Nº 90
187;Biblioteca Pública Nº 38;-70.6458238;-33.9469885;Mostazal;O'Higgins de Pilay s/n
188;Biblioteca Pública Nº 45;-70.8121042;-34.27949;Requínoa;Comercio Nº 339
190;Biblioteca Pública Nº 53;-70.75786029999999;-34.1662473;Codegua;O'Higgins Nº 300
193;Biblioteca Pública Nº 74;-70.712519;-33.978712;Mostazal;Independencia s/n
195;Biblioteca Carcelaria Nº 128;-70.964333;-34.226584;Doñihue;Dr. Sanhueza s/n
197;Biblioteca Pública Nº 143;-70.85145010000001;-34.3921981;Malloa;O'Higgins Nº 199
199;Biblioteca Carcelaria Nº 168;-70.80387999999999;-34.182685;Rancagua;Camino La Gonzalina s/n
200;Biblioteca Pública Nº 195;-70.7280572;-34.0647912;Graneros;Santa Elena Nº 104
204;Biblioteca Pública Nº 243;-70.9896636;-34.5870993;San Fernando;Manuel Rodríguez Nº 552
206;Biblioteca Pública Nº 245;-70.95380999999999;-34.26845;Coinco;Francisco Díaz Muñoz Nº 44
207;Biblioteca Pública Nº 246;-70.7529196;-33.4620754;La Estrella;Arturo Prat Nº 250
209;Biblioteca Pública Nº 248;-72.032687;-34.645314;Paredones;Km. 1 camino a Bucalemu
213;Biblioteca Pública Nº 289;-71.1153006;-34.6370319;Placilla;Oscar Gajardo esq. Fidel Palleres
222;Biblioteca Pública Nº 408;-71.3618547;-34.59574980000001;Palmilla;Anibal Pinto Nº 01
225;Biblioteca Carcelaria Nº 430;-70.60347349999999;-33.4307486;Peumo;León XIII Nº 095
234;Biblioteca Pública Nº 157;-70.73954789999999;-33.445865;Teno;Avda. Libertadores Nº 398
244;Biblioteca Pública Nº 259;-71.2794158;-35.1115768;Molina;Quechereguas Nº 1647
259;Biblioteca Pública Nº 426;-70.5679341;-35.9708278;Talca;Camino San Clemente Kilómetro 7
270;Biblioteca Pública Nº 49;-72.23743429999999;-37.7178812;;Mulchén
275;Biblioteca Pública Nº 61;-72.3510362;-37.4881295;Santa Bárbara;San Martín Nº 599
278;Biblioteca Pública Nº 64;-70.6493004;-33.4489694;Yungay;Arturo Prat Nº 385
282;Biblioteca Pública Nº 75;-72.675084;-37.5041055;Nacimiento;Las Margaritas esq. La Cruz s/n
291;Biblioteca Pública Nº 148;-71.6699338;-37.3310367;Antuco;Arturo Prat Nº 105
293;Biblioteca Pública filial Nº 159 A;-71.9730572;-36.4188465;San Carlos;Los Castaños Nº 885
302;Biblioteca Pública Nº 267;-73.1063206;-36.7822454;Hualpén;Bélgica Nº 1563
303;Biblioteca Pública Nº 268;-72.7945218;-36.1386156;;Cobquecura
314;Biblioteca Pública Nº 401;-71.892488;-36.7028633;Pinto;Jose Balmaceda s/n
317;Biblioteca Pública Nº 409;-70.65931239999999;-33.4515653;El Carmen;Manuel Rodriguez Nº 315
325;Biblioteca Pública filial Nº 138 B;-73.1678812;-38.7088593;;Carahue
326;Biblioteca Pública filial Nº 138 A;-73.1678812;-38.7088593;;Carahue
328;Biblioteca Pública Nº 311;-72.03280819999999;-38.9320456;Cunco;P. Aguirre Cerda N° 690
329;Biblioteca Pública Nº 134;-71.88974329999999;-38.4404247;;Curacautín
330;Biblioteca Pública Nº 345;-71.5890276;-39.3616465;;Curarrehue
333;Biblioteca Pública Nº 275;-72.3764918;-38.0618249;Ercilla;Ongolmo Nº 279
345;Biblioteca Pública Nº 377;-72.9031846;-38.16402009999999;;Lumaco
347;Biblioteca Pública Nº 376;-71.6929428;-38.852306;;Melipeuco
348;Biblioteca Pública Nº 112;-72.9482281;-38.7445218;;Nueva Imperial
349;Biblioteca Pública Nº 276;-73.2077436;-39.2043263;;Toltén
352;Biblioteca Pública Nº 315;-72.6380381;-38.9881009;Pitrufquén;Vicuña Mackenna Nº 891
353;Biblioteca Pública filial Nº 315 A;-72.6462402;-38.9827;Pitrufquén;Pasaje Las Carmelitas s/n
355;Biblioteca Pública Nº 278;-73.07182829999999;-38.0326817;;Purén
356;Biblioteca Pública Nº 280;-71.542969;-35.675147;;
357;Biblioteca Pública filial Nº 280 A;-72.5892062;-37.6737875;;Renaico
360;Biblioteca Pública filial Nº 302 A;-73.32251889999999;-38.9062804;Saavedra;Sector Ruca Raqui
363;Biblioteca Pública Nº 111;-72.57909;-38.74072;Temuco;Pudeto Nº 570
364;Biblioteca Pública Nº 300;-72.5965945;-38.7453171;Temuco;José del Rosario Muñoz N° 490
365;Biblioteca Pública filial Nº 98;-72.7556209;-38.7676946;Temuco;1 Sur s/n
366;Biblioteca Pública filial Nº 98;-72.62237689999999;-38.7255305;Temuco;Curiñanco Nº 40
367;Biblioteca Pública filial Nº 98 A;-72.56376809999999;-38.73144509999999;Temuco;Belgrado Nº 540
368;Biblioteca Pública filial Nº 98 B;-72.5903739;-38.7359018;;Temuco
369;Biblioteca Pública Nº 281;-73.0942969;-38.9991844;;Teodoro Schmidt
370;Biblioteca Pública filial Nº 281 A;-70.6612765;-33.4997143;Teodoro Schmidt;Dos Sur s/n
372;Biblioteca Pública Nº 392;-70.6103668;-33.4322518;-72;
374;Biblioteca Pública Nº 274;-70.7249769;-33.4699632;Vilcún;Arturo Prat Nº 439
375;Biblioteca Pública filial Nº 274 B;-70.61265980000002;-33.5108575;Vilcún;Libertad Nº 313
376;Biblioteca Pública filial Nº 274 A;-72.50539959999999;-38.678145;Vilcún;Gabriela Mistral Nº 145
379;Biblioteca Pública Nº 19;-72.873752;-40.07331500000001;Paillaco;Camilo Henriquez Nº 257
383;Biblioteca Pública Nº 206;-68.932142;-22.4508041;Corral;6 de mayo s/n
385;Biblioteca Pública Nº 208;-72.4865319;-40.3223908;Lago Ranco;Valparaíso Nº 401
390;Biblioteca Pública Nº 411;-72.7775425;-39.4503368;Lanco;Centenario Nº 171
397;Biblioteca Pública Nº 80;-73.1594973;-40.5845211;Osorno;Juan de Dios Hernández
400;Biblioteca Pública Nº 135;-72.53231389999999;-41.4305438;Puerto Montt;Camino Lago Chapo Km. 32
403;Biblioteca Pública Nº 151;-70.7129803;-33.4741763;Quemchi;Yungay Nº 22
406;Biblioteca Pública Nº 197;-73.39999999999999;-40.516667;San Juan de La Costa;Puaucho s/n
408;Biblioteca Pública Nº 199;-70.6959638;-33.4100007;Puyehue;Manuel Rodríguez s/n
411;Biblioteca Pública Nº 204;-73.59662709999999;-41.6163676;Maullín;21 de Mayo s/n
425;Biblioteca Pública Nº 307;-71.542969;-35.675147;;
433;Biblioteca Pública filial Nº 150 B;-72.5605265;-44.3251195;Cisnes;Otto Eubel s/n
447;Biblioteca Pública N° 324;-71.04127129999999;-34.70924;;Chimbarongo
448;Coordinación de Bibliotecas Públicas;-71.542969;-35.675147;;
452;Biblioteca Pública Nº 287;-70.87175859999999;-53.1371575;Punta Arenas;Km. 13 ½ Norte
456;Biblioteca Pública Nº 14;-72.9316229;-41.4712632;Natales;Phillipi Nº 510
457;Biblioteca Pública Nº 15;-70.3715254;-53.2955219;Porvenir;Muñoz Gamero N° 125
462;Biblioteca Pública Nº 346;-71.692847;-38.403474;Laguna Blanca;Km.100
471;Biblioteca Pública Nº 15;-70.3715254;-53.2955219;Porvenir;Muñoz Gamero N° 125
473;Biblioteca Pública Nº 191;-73.2536635;-39.8100183;Natales;Escuela G-6
476;Biblioteca Pública Nº 346;-71.692847;-38.403474;Laguna Blanca;Km.100
479;Bibliomóvil Cañete;-71.04127129999999;-34.70924;;Chimbarongo
480;Coordinación de Bibliotecas Públicas;-71.542969;-35.675147;;
481;Bibliomóvil Curicó;-71.2528803;-34.9779853;;Curicó
482;Bibliomóvil Maule;-71.675465;-35.4311329;Maule;Balmaceda Nº 350
483;Bibliomóvil Teno;-71.542969;-35.675147;;
484;DAEM Contulmo;-73.2292878;-38.0149266;;Contulmo
485;DAEM Portezuelo;-72.4282133;-36.5267723;;Portezuelo
486;DAEM Tirúa;-73.495516;-38.3419149;;Tirúa
487;Bibliomóvil Nacimiento;-72.67378750000002;-37.5059062;;Nacimiento
488;DIDECO Quilaco;-71.9986626;-37.6875544;;Quilaco
489;DAEM Los Álamos;-73.46226639999999;-37.6261237;;Los Álamos
490;DAEM Lebu;-73.6483294;-37.6097143;;Lebu
493;DAEM de Coelemu;-72.7570024;-36.4983941;;Coelemu
494;CULTURA;-72.10233509999999;-36.6062618;;Chillán
496;Bibliomóvil Los Sauces;-70.85517209999999;-34.4042155;Los Sauces;Ercilla 148
497;Bibliomóvil Angol;-72.7123216;-37.797146;Angol;Vergara Nº 549
498;Bibliomóvil Perquenco;-72.37562179999999;-38.4161093;;Perquenco
499;Bibliomóvil Reinaco;-72.59072309999999;-37.67857060000001;Renaico;Circunvalación Pedro de Valdivia Nº 370
500;Bibliomóvil Padre Las Casas;-72.6;-38.7667;Padre las Casas;
501;Bibliomóvil Temuco;-72.5903739;-38.7359018;Temuco;
560;Archivo Digital e Histórico del Centro de Documentación de la Fundación Centro Cultural Palacio La Moneda;-70.6534406;-33.4452849;Santiago;Plaza de la Ciudadanía Nº 26
561;Archivo de la Fundación Pablo Neruda;-70.63424719999999;-33.4312407;Providencia;Fernando Márquez de la Plata Nº 0192
562;Archivo del Centro de Documentación de la Fundación Salvador Allende;-70.6676391;-33.454147;Santiago;Avenida República Nº 475
567;Archivo del Centro de Documentación del Instituto de Desarrollo Agropecuario;-70.6574645;-33.4412115;Santiago;Agustinas Nº 1465
569;Archivo del Centro de Documentación del Instituto Nacional de la Juventud;-70.6587052;-33.4417179;Santiago;Agustinas Nº 1564
571;Archivo Histórico de la Municipalidad de San Bernardo;-70.703493;-33.592393;San Bernardo;Freire Nº 473
574;Archivo Visual del Museo de la Educación Gabriela Mistral;-70.6785859;-33.4415988;Santiago;Chacabuco Nº 365
575;Archivo del Centro de Documentación del Museo de la Memoria y los Derechos Humanos;-70.6802745;-33.4402799;Quinta Normal;Matucana Nº 501
576;Archivo Centro de Documentación del Museo de la Moda y Textil;-70.5863373;-33.3981028;Vitacura;Avda. Vitacura Nº 4562
578;Archivo Histórico del Museo Nacional Aeronaútico y del Espacio;-70.69660069999999;-33.4847362;Cerrillos;Avda. Pedro Aguirre Cerda Nº 5000
580;Archivo Documental del Museo Nacional de Bellas Artes;-70.6412692;-33.4356565;Santiago;Parque Forestal s/n
581;Archivo del Museo Nacional de Medicina Enrique Laval;-70.6558393;-33.4194071;Independencia;Avda. Independencia 1027
584;Archivo de Música Popular Chilena del Instituto de Música de la Pontificia Universidad Católica de Chile;-70.5944291;-33.4469165;Providencia;Avda. Jaime Guzmán Errázuriz Nº 3300
585;Archivo del Subdepartamento de Tenencia de Tierras y Aguas del SAG;-70.6541032;-33.4461933;Santiago;Alonso Ovalle Nº 1329
587;Archivo del Servicio Electoral;-70.64531819999999;-33.4356448;Santiago;Santo Domingo N° 566
592;Archivo del Centro de Documentación del Instituto de la Vivienda de la Universidad de Chile;-70.6381755;-33.4422791;Santiago;Avda. Portugal Nº 84
593;Archivo Central de la Universidad de Santiago de Chile;-70.6806007;-33.4504466;Santiago;Avda. Libertador Bernardo O’Higgins Nº 3363
595;Archivo del Centro de Investigación y Documentación en Historia de Chile Contemporáneo de la Universidad Finis Terrae;-70.6083857;-33.4367023;Providencia;Avda. Pedro de Valdivia Nº 1509
596;Archivo General de la Universidad Metropolitana de Ciencias de la Educación;-70.5979897;-33.4613887;Ñuñoa;Avda. José Pedro Alessandri Nº 774
597;Archivo Histórico de la Vicaría de la Solidaridad;-70.6627294;-33.4446857;Santiago;Erasmo Escala N° 1884
598;Archivo del Departamento de Administración y Presupuesto de la Dirección General de Obras Públicas;-70.65293129999999;-33.4429959;Santiago;Morandé Nº 59
599;Archivo de la Dirección de Obras Hidráulicas del Ministerio de Obras Públicas;-70.65293129999999;-33.4429959;Santiago;Morandé Nº 59
600;Archivo del Servicio Médico Legal;-70.65053300000001;-33.4191176;Independencia;Avda. La Paz Nº 1012
601;Archivo de la Superintendencia de Pensiones;-70.6564222;-33.4445277;Santiago;Avda. Libertador Bernardo O ́Higgins Nº 1449
