"posicion";"fecha";"hora";"titulo";"resumen"
1;"15/10/2020";18:00:00;"¿Cómo funciona un computador?";"El computador como una máquina que contiene módulos que interoperan entre sí y funcionan de acuerdo a la información que comparten."
2;"20/10/2020";18:00:00;"Navegar en archivos y directorios";"Los comandos básicos para moverse en una estructura de directorios y revisar el contenido de los archivos"
3;"22/10/2020";18:00:00;"Creación y modificación de archivos y directorios";"Los comandos y técnicas para poder crear archivos y directorios desde uno a grandes cantidades."
4;"26/10/2020";18:00:00;"Búsquedas sencillas con *grep*";"Cómo buscar coincidencias de texto usando el comando ‘grep’"
5;"29/10/2020";18:00:00;"Edición de textos sencillos con *sed*";"Cómo realizar cambios y editar textos usando el comando ‘sed’"
6;"3/11/2020";18:00:00;"Introducción a patrones de texto";"Se aplican los comandos anteriores y se introduce el concepto de ‘expresión regular’ con ejemplos prácticos"
7;"5/11/2020";18:00:00;"Patrones de texto y expresiones regulares";"Se realizan ejercicios de complejidad en que es clave el uso de ‘expresiones regulares’"
8;"10/11/2020";18:00:00;"Introducción a cadenas de texto";"Esta clase presenta la definición de ‘string’, enseña cómo reconocerlo y trabajar con variables de texto"
9;"12/11/2020";18:00:00;"Manipulación de cadenas de texto";"Esta clase presenta ejemplos y ejercicios en que será necesario manipular textos como string"
10;"12/11/2020";18:00:00;"Manipulación de textos en forma de fecha y tiempo";"El uso de fechas y tiempo es algo presente en todo desarrollo, esta clase presenta las herramientas de fecha-tiempo disponible y muestra cómo sacarles máximo provecho."
11;"16/11/2020";18:00:00;"Descargar videos y otros contenidos de la web";"Una clase modular que compendia los conocimientos anteriores y muestra algunos ejemplos de cómo descargar de manera programática contenidos multimedia desde la web."
12;"19/11/2020";18:00:00;"Awk: lenguaje de programación para procesar textos I";"Introducción a una herramienta clave para el procesamiento de información basada en texto, lenguaje awk es tanto un comando como un lenguaje que permite resolver problemas en tan solo una línea."
13;"23/11/2020";18:00:00;"Awk: lenguaje de programación para procesar textos II";"Profundizamos en el uso de awk, los conceptos principales y los parámetros de control"
14;"26/11/2020";18:00:00;"Awk: lenguaje de programación para procesar textos III";"Realizamos ejemplos prácticos utilizando las estructuras de control de flujo y funciones"
15;"30/11/2020";18:00:00;"Awk: lenguaje de programación para procesar textos IV";"Esta clase muestra ejemplos de iteración, activación de comandos bash desde awk, estructuras de datos como arrays"
16;"3/12/2020";18:00:00;"Awk: lenguaje de programación para procesar textos V";"Se realiza un compendio de los conocimientos compartidos y se muestra la realización de ejemplos que utilicen lo de las clases anteriores."
17;"7/12/2020";18:00:00;"Crear scripts en bash";"Pasamos de ejecutar comandos sueltos a crear un archivos con comandos secuenciales, se presenta el uso de ‘if’ y creación de funciones"
18;"10/12/2020";18:00:00;"Crear script avanzados en bash";"Se presenta el uso de ‘arrays’ en bash y la iteración sobre estos, verificación de condiciones."
19;"14/12/2020";18:00:00;"Crear scripts en bash con argumentos/opciones";"Se presenta la creación de scripts que tengan parámetros de entrada proveniente de opciones agregadas al comando que ejecuta el script."
20;"17/12/2020";18:00:00;"Graficar con GNU Plot I";"Se enseñan los principios básicos para la creación de gráficas utilizando las herramientas disponibles en la terminal"
21;"21/12/2020";18:00:00;"Graficar con GNU Plot II";"Se desarrollan ejemplos especializados, poniendo en práctica los comandos de las clases anteriores."
22;"28/12/2020";18:00:00;"Uso de teminales remotas con SSH";"SSH es un protocolo que permite comunicarse a través de la red de manera segura, ejecutar comandos en otros computadores y administrar sistemas"
23;"30/12/2020";18:00:00;"Introducción a control de versiones con GIT";"Cuando se trabaja con sistemas informáticos y también cualquier sistema de escritura en texto será necesario llevar un control de cambios que describan la evolución del proyecto. En esta clase se enseña como utilizar ‘git’ para gestionar un proyecto basado en texto: sea un libro, un paper, un programa."
